%!PS-Adobe-2.0
%%Title: generic.ps
%%Creator: gnuplot 4.6 patchlevel 2
%%CreationDate: Mon Mar 15 01:56:22 2021
%%DocumentFonts: (atend)
%%BoundingBox: 50 50 554 770
%%Orientation: Landscape
%%Pages: (atend)
%%EndComments
%%BeginProlog
/gnudict 256 dict def
gnudict begin
%
% The following true/false flags may be edited by hand if desired.
% The unit line width and grayscale image gamma correction may also be changed.
%
/Color true def
/Blacktext false def
/Solid false def
/Dashlength 1 def
/Landscape true def
/Level1 false def
/Rounded false def
/ClipToBoundingBox false def
/SuppressPDFMark false def
/TransparentPatterns false def
/gnulinewidth 5.000 def
/userlinewidth gnulinewidth def
/Gamma 1.0 def
/BackgroundColor {-1.000 -1.000 -1.000} def
%
/vshift -46 def
/dl1 {
  10.0 Dashlength mul mul
  Rounded { currentlinewidth 0.75 mul sub dup 0 le { pop 0.01 } if } if
} def
/dl2 {
  10.0 Dashlength mul mul
  Rounded { currentlinewidth 0.75 mul add } if
} def
/hpt_ 31.5 def
/vpt_ 31.5 def
/hpt hpt_ def
/vpt vpt_ def
/doclip {
  ClipToBoundingBox {
    newpath 50 50 moveto 554 50 lineto 554 770 lineto 50 770 lineto closepath
    clip
  } if
} def
%
% Gnuplot Prolog Version 4.6 (September 2012)
%
%/SuppressPDFMark true def
%
/M {moveto} bind def
/L {lineto} bind def
/R {rmoveto} bind def
/V {rlineto} bind def
/N {newpath moveto} bind def
/Z {closepath} bind def
/C {setrgbcolor} bind def
/f {rlineto fill} bind def
/g {setgray} bind def
/Gshow {show} def   % May be redefined later in the file to support UTF-8
/vpt2 vpt 2 mul def
/hpt2 hpt 2 mul def
/Lshow {currentpoint stroke M 0 vshift R 
	Blacktext {gsave 0 setgray show grestore} {show} ifelse} def
/Rshow {currentpoint stroke M dup stringwidth pop neg vshift R
	Blacktext {gsave 0 setgray show grestore} {show} ifelse} def
/Cshow {currentpoint stroke M dup stringwidth pop -2 div vshift R 
	Blacktext {gsave 0 setgray show grestore} {show} ifelse} def
/UP {dup vpt_ mul /vpt exch def hpt_ mul /hpt exch def
  /hpt2 hpt 2 mul def /vpt2 vpt 2 mul def} def
/DL {Color {setrgbcolor Solid {pop []} if 0 setdash}
 {pop pop pop 0 setgray Solid {pop []} if 0 setdash} ifelse} def
/BL {stroke userlinewidth 2 mul setlinewidth
	Rounded {1 setlinejoin 1 setlinecap} if} def
/AL {stroke userlinewidth 2 div setlinewidth
	Rounded {1 setlinejoin 1 setlinecap} if} def
/UL {dup gnulinewidth mul /userlinewidth exch def
	dup 1 lt {pop 1} if 10 mul /udl exch def} def
/PL {stroke userlinewidth setlinewidth
	Rounded {1 setlinejoin 1 setlinecap} if} def
3.8 setmiterlimit
% Default Line colors
/LCw {1 1 1} def
/LCb {0 0 0} def
/LCa {0 0 0} def
/LC0 {1 0 0} def
/LC1 {0 1 0} def
/LC2 {0 0 1} def
/LC3 {1 0 1} def
/LC4 {0 1 1} def
/LC5 {1 1 0} def
/LC6 {0 0 0} def
/LC7 {1 0.3 0} def
/LC8 {0.5 0.5 0.5} def
% Default Line Types
/LTw {PL [] 1 setgray} def
/LTb {BL [] LCb DL} def
/LTa {AL [1 udl mul 2 udl mul] 0 setdash LCa setrgbcolor} def
/LT0 {PL [] LC0 DL} def
/LT1 {PL [4 dl1 2 dl2] LC1 DL} def
/LT2 {PL [2 dl1 3 dl2] LC2 DL} def
/LT3 {PL [1 dl1 1.5 dl2] LC3 DL} def
/LT4 {PL [6 dl1 2 dl2 1 dl1 2 dl2] LC4 DL} def
/LT5 {PL [3 dl1 3 dl2 1 dl1 3 dl2] LC5 DL} def
/LT6 {PL [2 dl1 2 dl2 2 dl1 6 dl2] LC6 DL} def
/LT7 {PL [1 dl1 2 dl2 6 dl1 2 dl2 1 dl1 2 dl2] LC7 DL} def
/LT8 {PL [2 dl1 2 dl2 2 dl1 2 dl2 2 dl1 2 dl2 2 dl1 4 dl2] LC8 DL} def
/Pnt {stroke [] 0 setdash gsave 1 setlinecap M 0 0 V stroke grestore} def
/Dia {stroke [] 0 setdash 2 copy vpt add M
  hpt neg vpt neg V hpt vpt neg V
  hpt vpt V hpt neg vpt V closepath stroke
  Pnt} def
/Pls {stroke [] 0 setdash vpt sub M 0 vpt2 V
  currentpoint stroke M
  hpt neg vpt neg R hpt2 0 V stroke
 } def
/Box {stroke [] 0 setdash 2 copy exch hpt sub exch vpt add M
  0 vpt2 neg V hpt2 0 V 0 vpt2 V
  hpt2 neg 0 V closepath stroke
  Pnt} def
/Crs {stroke [] 0 setdash exch hpt sub exch vpt add M
  hpt2 vpt2 neg V currentpoint stroke M
  hpt2 neg 0 R hpt2 vpt2 V stroke} def
/TriU {stroke [] 0 setdash 2 copy vpt 1.12 mul add M
  hpt neg vpt -1.62 mul V
  hpt 2 mul 0 V
  hpt neg vpt 1.62 mul V closepath stroke
  Pnt} def
/Star {2 copy Pls Crs} def
/BoxF {stroke [] 0 setdash exch hpt sub exch vpt add M
  0 vpt2 neg V hpt2 0 V 0 vpt2 V
  hpt2 neg 0 V closepath fill} def
/TriUF {stroke [] 0 setdash vpt 1.12 mul add M
  hpt neg vpt -1.62 mul V
  hpt 2 mul 0 V
  hpt neg vpt 1.62 mul V closepath fill} def
/TriD {stroke [] 0 setdash 2 copy vpt 1.12 mul sub M
  hpt neg vpt 1.62 mul V
  hpt 2 mul 0 V
  hpt neg vpt -1.62 mul V closepath stroke
  Pnt} def
/TriDF {stroke [] 0 setdash vpt 1.12 mul sub M
  hpt neg vpt 1.62 mul V
  hpt 2 mul 0 V
  hpt neg vpt -1.62 mul V closepath fill} def
/DiaF {stroke [] 0 setdash vpt add M
  hpt neg vpt neg V hpt vpt neg V
  hpt vpt V hpt neg vpt V closepath fill} def
/Pent {stroke [] 0 setdash 2 copy gsave
  translate 0 hpt M 4 {72 rotate 0 hpt L} repeat
  closepath stroke grestore Pnt} def
/PentF {stroke [] 0 setdash gsave
  translate 0 hpt M 4 {72 rotate 0 hpt L} repeat
  closepath fill grestore} def
/Circle {stroke [] 0 setdash 2 copy
  hpt 0 360 arc stroke Pnt} def
/CircleF {stroke [] 0 setdash hpt 0 360 arc fill} def
/C0 {BL [] 0 setdash 2 copy moveto vpt 90 450 arc} bind def
/C1 {BL [] 0 setdash 2 copy moveto
	2 copy vpt 0 90 arc closepath fill
	vpt 0 360 arc closepath} bind def
/C2 {BL [] 0 setdash 2 copy moveto
	2 copy vpt 90 180 arc closepath fill
	vpt 0 360 arc closepath} bind def
/C3 {BL [] 0 setdash 2 copy moveto
	2 copy vpt 0 180 arc closepath fill
	vpt 0 360 arc closepath} bind def
/C4 {BL [] 0 setdash 2 copy moveto
	2 copy vpt 180 270 arc closepath fill
	vpt 0 360 arc closepath} bind def
/C5 {BL [] 0 setdash 2 copy moveto
	2 copy vpt 0 90 arc
	2 copy moveto
	2 copy vpt 180 270 arc closepath fill
	vpt 0 360 arc} bind def
/C6 {BL [] 0 setdash 2 copy moveto
	2 copy vpt 90 270 arc closepath fill
	vpt 0 360 arc closepath} bind def
/C7 {BL [] 0 setdash 2 copy moveto
	2 copy vpt 0 270 arc closepath fill
	vpt 0 360 arc closepath} bind def
/C8 {BL [] 0 setdash 2 copy moveto
	2 copy vpt 270 360 arc closepath fill
	vpt 0 360 arc closepath} bind def
/C9 {BL [] 0 setdash 2 copy moveto
	2 copy vpt 270 450 arc closepath fill
	vpt 0 360 arc closepath} bind def
/C10 {BL [] 0 setdash 2 copy 2 copy moveto vpt 270 360 arc closepath fill
	2 copy moveto
	2 copy vpt 90 180 arc closepath fill
	vpt 0 360 arc closepath} bind def
/C11 {BL [] 0 setdash 2 copy moveto
	2 copy vpt 0 180 arc closepath fill
	2 copy moveto
	2 copy vpt 270 360 arc closepath fill
	vpt 0 360 arc closepath} bind def
/C12 {BL [] 0 setdash 2 copy moveto
	2 copy vpt 180 360 arc closepath fill
	vpt 0 360 arc closepath} bind def
/C13 {BL [] 0 setdash 2 copy moveto
	2 copy vpt 0 90 arc closepath fill
	2 copy moveto
	2 copy vpt 180 360 arc closepath fill
	vpt 0 360 arc closepath} bind def
/C14 {BL [] 0 setdash 2 copy moveto
	2 copy vpt 90 360 arc closepath fill
	vpt 0 360 arc} bind def
/C15 {BL [] 0 setdash 2 copy vpt 0 360 arc closepath fill
	vpt 0 360 arc closepath} bind def
/Rec {newpath 4 2 roll moveto 1 index 0 rlineto 0 exch rlineto
	neg 0 rlineto closepath} bind def
/Square {dup Rec} bind def
/Bsquare {vpt sub exch vpt sub exch vpt2 Square} bind def
/S0 {BL [] 0 setdash 2 copy moveto 0 vpt rlineto BL Bsquare} bind def
/S1 {BL [] 0 setdash 2 copy vpt Square fill Bsquare} bind def
/S2 {BL [] 0 setdash 2 copy exch vpt sub exch vpt Square fill Bsquare} bind def
/S3 {BL [] 0 setdash 2 copy exch vpt sub exch vpt2 vpt Rec fill Bsquare} bind def
/S4 {BL [] 0 setdash 2 copy exch vpt sub exch vpt sub vpt Square fill Bsquare} bind def
/S5 {BL [] 0 setdash 2 copy 2 copy vpt Square fill
	exch vpt sub exch vpt sub vpt Square fill Bsquare} bind def
/S6 {BL [] 0 setdash 2 copy exch vpt sub exch vpt sub vpt vpt2 Rec fill Bsquare} bind def
/S7 {BL [] 0 setdash 2 copy exch vpt sub exch vpt sub vpt vpt2 Rec fill
	2 copy vpt Square fill Bsquare} bind def
/S8 {BL [] 0 setdash 2 copy vpt sub vpt Square fill Bsquare} bind def
/S9 {BL [] 0 setdash 2 copy vpt sub vpt vpt2 Rec fill Bsquare} bind def
/S10 {BL [] 0 setdash 2 copy vpt sub vpt Square fill 2 copy exch vpt sub exch vpt Square fill
	Bsquare} bind def
/S11 {BL [] 0 setdash 2 copy vpt sub vpt Square fill 2 copy exch vpt sub exch vpt2 vpt Rec fill
	Bsquare} bind def
/S12 {BL [] 0 setdash 2 copy exch vpt sub exch vpt sub vpt2 vpt Rec fill Bsquare} bind def
/S13 {BL [] 0 setdash 2 copy exch vpt sub exch vpt sub vpt2 vpt Rec fill
	2 copy vpt Square fill Bsquare} bind def
/S14 {BL [] 0 setdash 2 copy exch vpt sub exch vpt sub vpt2 vpt Rec fill
	2 copy exch vpt sub exch vpt Square fill Bsquare} bind def
/S15 {BL [] 0 setdash 2 copy Bsquare fill Bsquare} bind def
/D0 {gsave translate 45 rotate 0 0 S0 stroke grestore} bind def
/D1 {gsave translate 45 rotate 0 0 S1 stroke grestore} bind def
/D2 {gsave translate 45 rotate 0 0 S2 stroke grestore} bind def
/D3 {gsave translate 45 rotate 0 0 S3 stroke grestore} bind def
/D4 {gsave translate 45 rotate 0 0 S4 stroke grestore} bind def
/D5 {gsave translate 45 rotate 0 0 S5 stroke grestore} bind def
/D6 {gsave translate 45 rotate 0 0 S6 stroke grestore} bind def
/D7 {gsave translate 45 rotate 0 0 S7 stroke grestore} bind def
/D8 {gsave translate 45 rotate 0 0 S8 stroke grestore} bind def
/D9 {gsave translate 45 rotate 0 0 S9 stroke grestore} bind def
/D10 {gsave translate 45 rotate 0 0 S10 stroke grestore} bind def
/D11 {gsave translate 45 rotate 0 0 S11 stroke grestore} bind def
/D12 {gsave translate 45 rotate 0 0 S12 stroke grestore} bind def
/D13 {gsave translate 45 rotate 0 0 S13 stroke grestore} bind def
/D14 {gsave translate 45 rotate 0 0 S14 stroke grestore} bind def
/D15 {gsave translate 45 rotate 0 0 S15 stroke grestore} bind def
/DiaE {stroke [] 0 setdash vpt add M
  hpt neg vpt neg V hpt vpt neg V
  hpt vpt V hpt neg vpt V closepath stroke} def
/BoxE {stroke [] 0 setdash exch hpt sub exch vpt add M
  0 vpt2 neg V hpt2 0 V 0 vpt2 V
  hpt2 neg 0 V closepath stroke} def
/TriUE {stroke [] 0 setdash vpt 1.12 mul add M
  hpt neg vpt -1.62 mul V
  hpt 2 mul 0 V
  hpt neg vpt 1.62 mul V closepath stroke} def
/TriDE {stroke [] 0 setdash vpt 1.12 mul sub M
  hpt neg vpt 1.62 mul V
  hpt 2 mul 0 V
  hpt neg vpt -1.62 mul V closepath stroke} def
/PentE {stroke [] 0 setdash gsave
  translate 0 hpt M 4 {72 rotate 0 hpt L} repeat
  closepath stroke grestore} def
/CircE {stroke [] 0 setdash 
  hpt 0 360 arc stroke} def
/Opaque {gsave closepath 1 setgray fill grestore 0 setgray closepath} def
/DiaW {stroke [] 0 setdash vpt add M
  hpt neg vpt neg V hpt vpt neg V
  hpt vpt V hpt neg vpt V Opaque stroke} def
/BoxW {stroke [] 0 setdash exch hpt sub exch vpt add M
  0 vpt2 neg V hpt2 0 V 0 vpt2 V
  hpt2 neg 0 V Opaque stroke} def
/TriUW {stroke [] 0 setdash vpt 1.12 mul add M
  hpt neg vpt -1.62 mul V
  hpt 2 mul 0 V
  hpt neg vpt 1.62 mul V Opaque stroke} def
/TriDW {stroke [] 0 setdash vpt 1.12 mul sub M
  hpt neg vpt 1.62 mul V
  hpt 2 mul 0 V
  hpt neg vpt -1.62 mul V Opaque stroke} def
/PentW {stroke [] 0 setdash gsave
  translate 0 hpt M 4 {72 rotate 0 hpt L} repeat
  Opaque stroke grestore} def
/CircW {stroke [] 0 setdash 
  hpt 0 360 arc Opaque stroke} def
/BoxFill {gsave Rec 1 setgray fill grestore} def
/Density {
  /Fillden exch def
  currentrgbcolor
  /ColB exch def /ColG exch def /ColR exch def
  /ColR ColR Fillden mul Fillden sub 1 add def
  /ColG ColG Fillden mul Fillden sub 1 add def
  /ColB ColB Fillden mul Fillden sub 1 add def
  ColR ColG ColB setrgbcolor} def
/BoxColFill {gsave Rec PolyFill} def
/PolyFill {gsave Density fill grestore grestore} def
/h {rlineto rlineto rlineto gsave closepath fill grestore} bind def
%
% PostScript Level 1 Pattern Fill routine for rectangles
% Usage: x y w h s a XX PatternFill
%	x,y = lower left corner of box to be filled
%	w,h = width and height of box
%	  a = angle in degrees between lines and x-axis
%	 XX = 0/1 for no/yes cross-hatch
%
/PatternFill {gsave /PFa [ 9 2 roll ] def
  PFa 0 get PFa 2 get 2 div add PFa 1 get PFa 3 get 2 div add translate
  PFa 2 get -2 div PFa 3 get -2 div PFa 2 get PFa 3 get Rec
  TransparentPatterns {} {gsave 1 setgray fill grestore} ifelse
  clip
  currentlinewidth 0.5 mul setlinewidth
  /PFs PFa 2 get dup mul PFa 3 get dup mul add sqrt def
  0 0 M PFa 5 get rotate PFs -2 div dup translate
  0 1 PFs PFa 4 get div 1 add floor cvi
	{PFa 4 get mul 0 M 0 PFs V} for
  0 PFa 6 get ne {
	0 1 PFs PFa 4 get div 1 add floor cvi
	{PFa 4 get mul 0 2 1 roll M PFs 0 V} for
 } if
  stroke grestore} def
%
/languagelevel where
 {pop languagelevel} {1} ifelse
 2 lt
	{/InterpretLevel1 true def}
	{/InterpretLevel1 Level1 def}
 ifelse
%
% PostScript level 2 pattern fill definitions
%
/Level2PatternFill {
/Tile8x8 {/PaintType 2 /PatternType 1 /TilingType 1 /BBox [0 0 8 8] /XStep 8 /YStep 8}
	bind def
/KeepColor {currentrgbcolor [/Pattern /DeviceRGB] setcolorspace} bind def
<< Tile8x8
 /PaintProc {0.5 setlinewidth pop 0 0 M 8 8 L 0 8 M 8 0 L stroke} 
>> matrix makepattern
/Pat1 exch def
<< Tile8x8
 /PaintProc {0.5 setlinewidth pop 0 0 M 8 8 L 0 8 M 8 0 L stroke
	0 4 M 4 8 L 8 4 L 4 0 L 0 4 L stroke}
>> matrix makepattern
/Pat2 exch def
<< Tile8x8
 /PaintProc {0.5 setlinewidth pop 0 0 M 0 8 L
	8 8 L 8 0 L 0 0 L fill}
>> matrix makepattern
/Pat3 exch def
<< Tile8x8
 /PaintProc {0.5 setlinewidth pop -4 8 M 8 -4 L
	0 12 M 12 0 L stroke}
>> matrix makepattern
/Pat4 exch def
<< Tile8x8
 /PaintProc {0.5 setlinewidth pop -4 0 M 8 12 L
	0 -4 M 12 8 L stroke}
>> matrix makepattern
/Pat5 exch def
<< Tile8x8
 /PaintProc {0.5 setlinewidth pop -2 8 M 4 -4 L
	0 12 M 8 -4 L 4 12 M 10 0 L stroke}
>> matrix makepattern
/Pat6 exch def
<< Tile8x8
 /PaintProc {0.5 setlinewidth pop -2 0 M 4 12 L
	0 -4 M 8 12 L 4 -4 M 10 8 L stroke}
>> matrix makepattern
/Pat7 exch def
<< Tile8x8
 /PaintProc {0.5 setlinewidth pop 8 -2 M -4 4 L
	12 0 M -4 8 L 12 4 M 0 10 L stroke}
>> matrix makepattern
/Pat8 exch def
<< Tile8x8
 /PaintProc {0.5 setlinewidth pop 0 -2 M 12 4 L
	-4 0 M 12 8 L -4 4 M 8 10 L stroke}
>> matrix makepattern
/Pat9 exch def
/Pattern1 {PatternBgnd KeepColor Pat1 setpattern} bind def
/Pattern2 {PatternBgnd KeepColor Pat2 setpattern} bind def
/Pattern3 {PatternBgnd KeepColor Pat3 setpattern} bind def
/Pattern4 {PatternBgnd KeepColor Landscape {Pat5} {Pat4} ifelse setpattern} bind def
/Pattern5 {PatternBgnd KeepColor Landscape {Pat4} {Pat5} ifelse setpattern} bind def
/Pattern6 {PatternBgnd KeepColor Landscape {Pat9} {Pat6} ifelse setpattern} bind def
/Pattern7 {PatternBgnd KeepColor Landscape {Pat8} {Pat7} ifelse setpattern} bind def
} def
%
%
%End of PostScript Level 2 code
%
/PatternBgnd {
  TransparentPatterns {} {gsave 1 setgray fill grestore} ifelse
} def
%
% Substitute for Level 2 pattern fill codes with
% grayscale if Level 2 support is not selected.
%
/Level1PatternFill {
/Pattern1 {0.250 Density} bind def
/Pattern2 {0.500 Density} bind def
/Pattern3 {0.750 Density} bind def
/Pattern4 {0.125 Density} bind def
/Pattern5 {0.375 Density} bind def
/Pattern6 {0.625 Density} bind def
/Pattern7 {0.875 Density} bind def
} def
%
% Now test for support of Level 2 code
%
Level1 {Level1PatternFill} {Level2PatternFill} ifelse
%
/Symbol-Oblique /Symbol findfont [1 0 .167 1 0 0] makefont
dup length dict begin {1 index /FID eq {pop pop} {def} ifelse} forall
currentdict end definefont pop
Level1 SuppressPDFMark or 
{} {
/SDict 10 dict def
systemdict /pdfmark known not {
  userdict /pdfmark systemdict /cleartomark get put
} if
SDict begin [
  /Title (generic.ps)
  /Subject (gnuplot plot)
  /Creator (gnuplot 4.6 patchlevel 2)
  /Author (sniall)
%  /Producer (gnuplot)
%  /Keywords ()
  /CreationDate (Mon Mar 15 01:56:22 2021)
  /DOCINFO pdfmark
end
} ifelse
end
%%EndProlog
%%Page: 1 1
gnudict begin
gsave
doclip
50 50 translate
0.100 0.100 scale
90 rotate
0 -5040 translate
0 setgray
newpath
(Helvetica) findfont 140 scalefont setfont
BackgroundColor 0 lt 3 1 roll 0 lt exch 0 lt or or not {gsave BackgroundColor C clippath fill grestore} if
1.000 UL
LTb
LCb setrgbcolor
602 448 M
63 0 V
6282 0 R
-63 0 V
518 448 M
( 0) Rshow
1.000 UL
LTb
LCb setrgbcolor
602 827 M
63 0 V
6282 0 R
-63 0 V
518 827 M
( 1) Rshow
1.000 UL
LTb
LCb setrgbcolor
602 1206 M
63 0 V
6282 0 R
-63 0 V
-6366 0 R
( 2) Rshow
1.000 UL
LTb
LCb setrgbcolor
602 1586 M
63 0 V
6282 0 R
-63 0 V
-6366 0 R
( 3) Rshow
1.000 UL
LTb
LCb setrgbcolor
602 1965 M
63 0 V
6282 0 R
-63 0 V
-6366 0 R
( 4) Rshow
1.000 UL
LTb
LCb setrgbcolor
602 2344 M
63 0 V
6282 0 R
-63 0 V
-6366 0 R
( 5) Rshow
1.000 UL
LTb
LCb setrgbcolor
602 2723 M
63 0 V
6282 0 R
-63 0 V
-6366 0 R
( 6) Rshow
1.000 UL
LTb
LCb setrgbcolor
602 3102 M
63 0 V
6282 0 R
-63 0 V
-6366 0 R
( 7) Rshow
1.000 UL
LTb
LCb setrgbcolor
602 3481 M
63 0 V
6282 0 R
-63 0 V
-6366 0 R
( 8) Rshow
1.000 UL
LTb
LCb setrgbcolor
602 3861 M
63 0 V
6282 0 R
-63 0 V
-6366 0 R
( 9) Rshow
1.000 UL
LTb
LCb setrgbcolor
602 4240 M
63 0 V
6282 0 R
-63 0 V
-6366 0 R
( 10) Rshow
1.000 UL
LTb
LCb setrgbcolor
602 4619 M
63 0 V
6282 0 R
-63 0 V
-6366 0 R
( 11) Rshow
1.000 UL
LTb
LCb setrgbcolor
602 448 M
0 63 V
0 4108 R
0 -63 V
602 308 M
( 4) Cshow
1.000 UL
LTb
LCb setrgbcolor
1154 448 M
0 63 V
0 4108 R
0 -63 V
0 -4248 R
( 16) Cshow
1.000 UL
LTb
LCb setrgbcolor
1705 448 M
0 63 V
0 4108 R
0 -63 V
0 -4248 R
( 64) Cshow
1.000 UL
LTb
LCb setrgbcolor
2257 448 M
0 63 V
0 4108 R
0 -63 V
0 -4248 R
( 256) Cshow
1.000 UL
LTb
LCb setrgbcolor
2809 448 M
0 63 V
0 4108 R
0 -63 V
0 -4248 R
(1K) Cshow
1.000 UL
LTb
LCb setrgbcolor
3361 448 M
0 63 V
0 4108 R
0 -63 V
0 -4248 R
(4K) Cshow
1.000 UL
LTb
LCb setrgbcolor
3912 448 M
0 63 V
0 4108 R
0 -63 V
0 -4248 R
(16K) Cshow
1.000 UL
LTb
LCb setrgbcolor
4464 448 M
0 63 V
0 4108 R
0 -63 V
0 -4248 R
(64K) Cshow
1.000 UL
LTb
LCb setrgbcolor
5016 448 M
0 63 V
0 4108 R
0 -63 V
0 -4248 R
(256K) Cshow
1.000 UL
LTb
LCb setrgbcolor
5568 448 M
0 63 V
0 4108 R
0 -63 V
0 -4248 R
(1M) Cshow
1.000 UL
LTb
LCb setrgbcolor
1.000 UL
LTb
LCb setrgbcolor
602 4619 N
602 448 L
6345 0 V
0 4171 V
-6345 0 V
Z stroke
LCb setrgbcolor
112 2533 M
currentpoint gsave translate -270 rotate 0 0 M
(Time Read+Write \(nanoseconds\)) Cshow
grestore
LTb
LCb setrgbcolor
3774 98 M
(Stride \(bytes\)) Cshow
LTb
3774 4829 M
(18-Core Intel\(R\) Xeon\(R\) Gold 6150 @ 2.70 GHz Read+Write \(ns\) Versus Stride) Cshow
1.000 UP
1.000 UL
LTb
LCb setrgbcolor
% Begin plot #1
1.000 UP
1.000 UL
LT0
LC0 setrgbcolor
LCb setrgbcolor
6296 4486 M
(0.5 KB) Rshow
LT0
6380 4486 M
399 0 V
602 641 M
276 31 V
276 -49 V
276 4 V
275 7 V
276 122 V
276 -33 V
602 641 Pls
878 672 Pls
1154 623 Pls
1430 627 Pls
1705 634 Pls
1981 756 Pls
2257 723 Pls
6579 4486 Pls
% End plot #1
% Begin plot #2
1.000 UP
1.000 UL
LT1
LC1 setrgbcolor
LCb setrgbcolor
6296 4346 M
(1 KB) Rshow
LT1
6380 4346 M
399 0 V
602 629 M
276 10 V
276 33 V
276 -50 V
275 3 V
276 7 V
276 124 V
276 -35 V
602 629 Crs
878 639 Crs
1154 672 Crs
1430 622 Crs
1705 625 Crs
1981 632 Crs
2257 756 Crs
2533 721 Crs
6579 4346 Crs
% End plot #2
% Begin plot #3
1.000 UP
1.000 UL
LT2
LC2 setrgbcolor
LCb setrgbcolor
6296 4206 M
(2 KB) Rshow
LT2
6380 4206 M
399 0 V
602 623 M
276 5 V
276 10 V
276 33 V
275 -50 V
276 3 V
276 8 V
276 125 V
276 -45 V
602 623 Star
878 628 Star
1154 638 Star
1430 671 Star
1705 621 Star
1981 624 Star
2257 632 Star
2533 757 Star
2809 712 Star
6579 4206 Star
% End plot #3
% Begin plot #4
1.000 UP
1.000 UL
LT3
LC3 setrgbcolor
LCb setrgbcolor
6296 4066 M
(4 KB) Rshow
LT3
6380 4066 M
399 0 V
602 620 M
276 3 V
276 5 V
276 10 V
275 33 V
276 -50 V
276 3 V
276 7 V
276 126 V
276 -47 V
602 620 Box
878 623 Box
1154 628 Box
1430 638 Box
1705 671 Box
1981 621 Box
2257 624 Box
2533 631 Box
2809 757 Box
3085 710 Box
6579 4066 Box
% End plot #4
% Begin plot #5
1.000 UP
1.000 UL
LT4
LC4 setrgbcolor
LCb setrgbcolor
6296 3926 M
(8 KB) Rshow
LT4
6380 3926 M
399 0 V
602 619 M
276 1 V
276 2 V
276 5 V
275 10 V
276 34 V
276 -51 V
276 24 V
276 -7 V
276 120 V
276 -14 V
602 619 BoxF
878 620 BoxF
1154 622 BoxF
1430 627 BoxF
1705 637 BoxF
1981 671 BoxF
2257 620 BoxF
2533 644 BoxF
2809 637 BoxF
3085 757 BoxF
3361 743 BoxF
6579 3926 BoxF
% End plot #5
% Begin plot #6
1.000 UP
1.000 UL
LT5
LC5 setrgbcolor
LCb setrgbcolor
6296 3786 M
(16 KB) Rshow
LT5
6380 3786 M
399 0 V
602 618 M
276 1 V
276 1 V
276 2 V
275 5 V
276 10 V
276 34 V
276 -20 V
276 36 V
276 24 V
276 46 V
276 -13 V
602 618 Circle
878 619 Circle
1154 620 Circle
1430 622 Circle
1705 627 Circle
1981 637 Circle
2257 671 Circle
2533 651 Circle
2809 687 Circle
3085 711 Circle
3361 757 Circle
3637 744 Circle
6579 3786 Circle
% End plot #6
% Begin plot #7
1.000 UP
1.000 UL
LT6
LC6 setrgbcolor
LCb setrgbcolor
6296 3646 M
(32 KB) Rshow
LT6
6380 3646 M
399 0 V
602 618 M
276 0 V
276 1 V
276 1 V
275 2 V
276 5 V
276 10 V
276 56 V
276 -5 V
276 59 V
276 103 V
276 -93 V
275 -14 V
602 618 CircleF
878 618 CircleF
1154 619 CircleF
1430 620 CircleF
1705 622 CircleF
1981 627 CircleF
2257 637 CircleF
2533 693 CircleF
2809 688 CircleF
3085 747 CircleF
3361 850 CircleF
3637 757 CircleF
3912 743 CircleF
6579 3646 CircleF
% End plot #7
% Begin plot #8
1.000 UP
1.000 UL
LT7
LC7 setrgbcolor
LCb setrgbcolor
6296 3506 M
(64 KB) Rshow
LT7
6380 3506 M
399 0 V
602 617 M
276 8 V
276 27 V
276 3 V
275 185 V
276 174 V
276 5 V
276 193 V
276 455 V
276 -221 V
276 378 V
3637 850 L
275 -93 V
276 -14 V
602 617 TriU
878 625 TriU
1154 652 TriU
1430 655 TriU
1705 840 TriU
1981 1014 TriU
2257 1019 TriU
2533 1212 TriU
2809 1667 TriU
3085 1446 TriU
3361 1824 TriU
3637 850 TriU
3912 757 TriU
4188 743 TriU
6579 3506 TriU
% End plot #8
% Begin plot #9
1.000 UP
1.000 UL
LT8
LC8 setrgbcolor
LCb setrgbcolor
6296 3366 M
(128 KB) Rshow
LT8
6380 3366 M
399 0 V
602 617 M
276 8 V
276 27 V
276 3 V
275 184 V
276 175 V
276 5 V
276 179 V
276 306 V
276 216 V
276 423 V
276 -317 V
3912 849 L
276 -92 V
276 -14 V
602 617 TriUF
878 625 TriUF
1154 652 TriUF
1430 655 TriUF
1705 839 TriUF
1981 1014 TriUF
2257 1019 TriUF
2533 1198 TriUF
2809 1504 TriUF
3085 1720 TriUF
3361 2143 TriUF
3637 1826 TriUF
3912 849 TriUF
4188 757 TriUF
4464 743 TriUF
6579 3366 TriUF
% End plot #9
% Begin plot #10
1.000 UP
1.000 UL
LT0
LC0 setrgbcolor
LCb setrgbcolor
6296 3226 M
(256 KB) Rshow
LT0
6380 3226 M
399 0 V
602 617 M
276 8 V
276 27 V
276 2 V
275 183 V
276 177 V
276 5 V
276 185 V
276 306 V
276 209 V
276 423 V
276 18 V
275 -42 V
4188 1091 L
4464 757 L
276 -14 V
602 617 TriD
878 625 TriD
1154 652 TriD
1430 654 TriD
1705 837 TriD
1981 1014 TriD
2257 1019 TriD
2533 1204 TriD
2809 1510 TriD
3085 1719 TriD
3361 2142 TriD
3637 2160 TriD
3912 2118 TriD
4188 1091 TriD
4464 757 TriD
4740 743 TriD
6579 3226 TriD
% End plot #10
% Begin plot #11
1.000 UP
1.000 UL
LT1
LC1 setrgbcolor
LCb setrgbcolor
6296 3086 M
(512 KB) Rshow
LT1
6380 3086 M
399 0 V
602 617 M
276 8 V
276 27 V
276 2 V
275 182 V
276 177 V
276 5 V
276 195 V
276 301 V
276 201 V
276 424 V
276 16 V
275 -17 V
276 -26 V
4464 869 L
4740 757 L
276 -14 V
602 617 TriDF
878 625 TriDF
1154 652 TriDF
1430 654 TriDF
1705 836 TriDF
1981 1013 TriDF
2257 1018 TriDF
2533 1213 TriDF
2809 1514 TriDF
3085 1715 TriDF
3361 2139 TriDF
3637 2155 TriDF
3912 2138 TriDF
4188 2112 TriDF
4464 869 TriDF
4740 757 TriDF
5016 743 TriDF
6579 3086 TriDF
% End plot #11
% Begin plot #12
1.000 UP
1.000 UL
LT2
LC2 setrgbcolor
LCb setrgbcolor
6296 2946 M
(1 MB) Rshow
LT2
6380 2946 M
399 0 V
602 620 M
276 17 V
276 44 V
276 55 V
275 218 V
276 162 V
276 14 V
276 204 V
276 263 V
276 196 V
276 353 V
276 20 V
275 2 V
276 -12 V
276 -329 V
4740 869 L
5016 757 L
276 -14 V
602 620 Dia
878 637 Dia
1154 681 Dia
1430 736 Dia
1705 954 Dia
1981 1116 Dia
2257 1130 Dia
2533 1334 Dia
2809 1597 Dia
3085 1793 Dia
3361 2146 Dia
3637 2166 Dia
3912 2168 Dia
4188 2156 Dia
4464 1827 Dia
4740 869 Dia
5016 757 Dia
5292 743 Dia
6579 2946 Dia
% End plot #12
% Begin plot #13
1.000 UP
1.000 UL
LT3
LC3 setrgbcolor
LCb setrgbcolor
6296 2806 M
(2 MB) Rshow
LT3
6380 2806 M
399 0 V
602 622 M
276 28 V
276 100 V
276 197 V
275 428 V
276 336 V
276 13 V
276 1 V
276 195 V
276 179 V
276 202 V
276 -118 V
275 -24 V
276 -6 V
276 9 V
276 -112 V
5016 869 L
5292 757 L
276 -14 V
602 622 DiaF
878 650 DiaF
1154 750 DiaF
1430 947 DiaF
1705 1375 DiaF
1981 1711 DiaF
2257 1724 DiaF
2533 1725 DiaF
2809 1920 DiaF
3085 2099 DiaF
3361 2301 DiaF
3637 2183 DiaF
3912 2159 DiaF
4188 2153 DiaF
4464 2162 DiaF
4740 2050 DiaF
5016 869 DiaF
5292 757 DiaF
5568 743 DiaF
6579 2806 DiaF
% End plot #13
% Begin plot #14
1.000 UP
1.000 UL
LT4
LC4 setrgbcolor
LCb setrgbcolor
6296 2666 M
(4 MB) Rshow
LT4
6380 2666 M
399 0 V
602 622 M
276 30 V
276 100 V
276 201 V
275 430 V
276 343 V
276 17 V
276 -7 V
276 187 V
276 192 V
276 198 V
276 26 V
275 -63 V
276 -82 V
276 -40 V
276 31 V
276 -145 V
5292 869 L
5568 757 L
276 -13 V
602 622 Pent
878 652 Pent
1154 752 Pent
1430 953 Pent
1705 1383 Pent
1981 1726 Pent
2257 1743 Pent
2533 1736 Pent
2809 1923 Pent
3085 2115 Pent
3361 2313 Pent
3637 2339 Pent
3912 2276 Pent
4188 2194 Pent
4464 2154 Pent
4740 2185 Pent
5016 2040 Pent
5292 869 Pent
5568 757 Pent
5844 744 Pent
6579 2666 Pent
% End plot #14
% Begin plot #15
1.000 UP
1.000 UL
LT5
LC5 setrgbcolor
LCb setrgbcolor
6296 2526 M
(8 MB) Rshow
LT5
6380 2526 M
399 0 V
602 622 M
276 35 V
276 101 V
276 208 V
275 441 V
276 352 V
276 17 V
276 -19 V
276 159 V
276 212 V
276 162 V
276 67 V
275 -24 V
276 -150 V
276 -15 V
276 14 V
276 -24 V
276 -323 V
5568 869 L
5844 757 L
275 -14 V
602 622 PentF
878 657 PentF
1154 758 PentF
1430 966 PentF
1705 1407 PentF
1981 1759 PentF
2257 1776 PentF
2533 1757 PentF
2809 1916 PentF
3085 2128 PentF
3361 2290 PentF
3637 2357 PentF
3912 2333 PentF
4188 2183 PentF
4464 2168 PentF
4740 2182 PentF
5016 2158 PentF
5292 1835 PentF
5568 869 PentF
5844 757 PentF
6119 743 PentF
6579 2526 PentF
% End plot #15
% Begin plot #16
1.000 UP
1.000 UL
LT6
LC6 setrgbcolor
LCb setrgbcolor
6296 2386 M
(16 MB) Rshow
LT6
6380 2386 M
399 0 V
602 633 M
276 68 V
276 195 V
276 295 V
275 514 V
276 361 V
276 14 V
276 -182 V
276 127 V
276 181 V
276 148 V
276 -79 V
275 54 V
276 -10 V
276 -157 V
276 16 V
276 -11 V
276 4 V
276 -337 V
5844 869 L
6119 757 L
276 -13 V
602 633 C0
878 701 C0
1154 896 C0
1430 1191 C0
1705 1705 C0
1981 2066 C0
2257 2080 C0
2533 1898 C0
2809 2025 C0
3085 2206 C0
3361 2354 C0
3637 2275 C0
3912 2329 C0
4188 2319 C0
4464 2162 C0
4740 2178 C0
5016 2167 C0
5292 2171 C0
5568 1834 C0
5844 869 C0
6119 757 C0
6395 744 C0
6579 2386 C0
% End plot #16
% Begin plot #17
1.000 UP
1.000 UL
LT7
LC7 setrgbcolor
LCb setrgbcolor
6296 2246 M
(32 MB) Rshow
LT7
6380 2246 M
399 0 V
602 682 M
878 801 L
276 235 V
276 376 V
275 719 V
276 843 V
276 36 V
276 -236 V
276 67 V
276 144 V
276 125 V
276 -509 V
275 -199 V
276 -35 V
276 -55 V
276 -69 V
276 -77 V
276 14 V
276 -72 V
276 134 V
6119 999 L
276 348 V
6671 744 L
602 682 C1
878 801 C1
1154 1036 C1
1430 1412 C1
1705 2131 C1
1981 2974 C1
2257 3010 C1
2533 2774 C1
2809 2841 C1
3085 2985 C1
3361 3110 C1
3637 2601 C1
3912 2402 C1
4188 2367 C1
4464 2312 C1
4740 2243 C1
5016 2166 C1
5292 2180 C1
5568 2108 C1
5844 2242 C1
6119 999 C1
6395 1347 C1
6671 744 C1
6579 2246 C1
% End plot #17
% Begin plot #18
1.000 UP
1.000 UL
LT8
LC8 setrgbcolor
LCb setrgbcolor
6296 2106 M
(64 MB) Rshow
LT8
6380 2106 M
399 0 V
602 683 M
878 796 L
276 238 V
276 416 V
275 1005 V
276 1551 V
276 283 V
276 -688 V
276 -87 V
276 227 V
276 205 V
276 -773 V
275 -578 V
276 72 V
276 -339 V
276 -13 V
276 -123 V
276 -2 V
276 -28 V
276 -16 V
275 -33 V
6395 1041 L
6671 757 L
276 -14 V
602 683 C2
878 796 C2
1154 1034 C2
1430 1450 C2
1705 2455 C2
1981 4006 C2
2257 4289 C2
2533 3601 C2
2809 3514 C2
3085 3741 C2
3361 3946 C2
3637 3173 C2
3912 2595 C2
4188 2667 C2
4464 2328 C2
4740 2315 C2
5016 2192 C2
5292 2190 C2
5568 2162 C2
5844 2146 C2
6119 2113 C2
6395 1041 C2
6671 757 C2
6947 743 C2
6579 2106 C2
% End plot #18
1.000 UL
LTb
LCb setrgbcolor
602 4619 N
602 448 L
6345 0 V
0 4171 V
-6345 0 V
Z stroke
1.000 UP
1.000 UL
LTb
LCb setrgbcolor
stroke
grestore
end
showpage
%%Trailer
%%DocumentFonts: Helvetica
%%Pages: 1
