%!PS-Adobe-3.0 EPSF-3.0
%%DocumentNeededResources: font Helvetica
%%+ font Helvetica-Bold
%%+ font Helvetica-Oblique
%%+ font Helvetica-BoldOblique
%%+ font Symbol
%%Title: R Graphics Output
%%Creator: R Software
%%Pages: (atend)
%%BoundingBox: 0 0 450 300
%%EndComments
%%BeginProlog
/bp  { gs sRGB gs } def
% begin .ps.prolog
/gs  { gsave } bind def
/gr  { grestore } bind def
/ep  { showpage gr gr } bind def
/m   { moveto } bind def
/l  { rlineto } bind def
/np  { newpath } bind def
/cp  { closepath } bind def
/f   { fill } bind def
/o   { stroke } bind def
/c   { newpath 0 360 arc } bind def
/r   { 4 2 roll moveto 1 copy 3 -1 roll exch 0 exch rlineto 0 rlineto -1 mul 0 exch rlineto closepath } bind def
/p1  { stroke } bind def
/p2  { gsave bg fill grestore newpath } bind def
/p3  { gsave bg fill grestore stroke } bind def
/p6  { gsave bg eofill grestore newpath } bind def
/p7  { gsave bg eofill grestore stroke } bind def
/t   { 5 -2 roll moveto gsave rotate
       1 index stringwidth pop
       mul neg 0 rmoveto show grestore } bind def
/ta  { 4 -2 roll moveto gsave rotate show } bind def
/tb  { 2 -1 roll 0 rmoveto show } bind def
/cl  { grestore gsave newpath 3 index 3 index moveto 1 index
       4 -1 roll lineto  exch 1 index lineto lineto
       closepath clip newpath } bind def
/rgb { setrgbcolor } bind def
/s   { scalefont setfont } bind def
% end   .ps.prolog
/sRGB { [ /CIEBasedABC
          << /DecodeLMN
               [ { dup 0.03928 le
                        {12.92321 div}
                        {0.055 add 1.055 div 2.4 exp }
                     ifelse
                 } bind dup dup
               ]
             /MatrixLMN [0.412457 0.212673 0.019334
                         0.357576 0.715152 0.119192
                         0.180437 0.072175 0.950301]
             /WhitePoint [0.9505 1.0 1.0890]
           >>
         ] setcolorspace } bind def
/srgb { setcolor } bind def
%%IncludeResource: font Helvetica
/Helvetica findfont
dup length dict begin
  {1 index /FID ne {def} {pop pop} ifelse} forall
  /Encoding ISOLatin1Encoding def
  currentdict
  end
/Font1 exch definefont pop
%%IncludeResource: font Helvetica-Bold
/Helvetica-Bold findfont
dup length dict begin
  {1 index /FID ne {def} {pop pop} ifelse} forall
  /Encoding ISOLatin1Encoding def
  currentdict
  end
/Font2 exch definefont pop
%%IncludeResource: font Helvetica-Oblique
/Helvetica-Oblique findfont
dup length dict begin
  {1 index /FID ne {def} {pop pop} ifelse} forall
  /Encoding ISOLatin1Encoding def
  currentdict
  end
/Font3 exch definefont pop
%%IncludeResource: font Helvetica-BoldOblique
/Helvetica-BoldOblique findfont
dup length dict begin
  {1 index /FID ne {def} {pop pop} ifelse} forall
  /Encoding ISOLatin1Encoding def
  currentdict
  end
/Font4 exch definefont pop
%%IncludeResource: font Symbol
/Symbol findfont
dup length dict begin
  {1 index /FID ne {def} {pop pop} ifelse} forall
  currentdict
  end
/Font5 exch definefont pop
%%EndProlog
%%Page: 1 1
bp
0.00 0.00 450.00 300.00 cl
0.00 0.00 450.00 300.00 cl
0.00 0.00 450.00 300.00 cl
0.00 0.00 450.00 300.00 cl
0.00 0.00 450.00 300.00 cl
0.00 0.00 450.00 300.00 cl
0.00 0.00 450.00 300.00 cl
0.00 0.00 450.00 300.00 cl
0.00 0.00 450.00 300.00 cl
0.00 0.00 360.00 300.00 cl
/bg { 1 1 1 srgb } def
1 1 1 srgb
1.07 setlinewidth
[] 0 setdash
1 setlinecap
1 setlinejoin
10.00 setmiterlimit
0.00 0.00 360.00 300.00 r p3
0.00 0.00 450.00 300.00 cl
38.38 31.68 354.52 294.52 cl
/bg { 1 1 1 srgb } def
38.38 31.68 316.14 262.84 r p2
0.9216 0.9216 0.9216 srgb
0.53 setlinewidth
[] 0 setdash
0 setlinecap
1 setlinejoin
10.00 setmiterlimit
np
38.38 64.53 m
316.14 0 l
o
np
38.38 130.24 m
316.14 0 l
o
np
38.38 195.95 m
316.14 0 l
o
np
38.38 261.67 m
316.14 0 l
o
np
45.56 31.68 m
0 262.84 l
o
np
117.41 31.68 m
0 262.84 l
o
np
189.26 31.68 m
0 262.84 l
o
np
261.11 31.68 m
0 262.84 l
o
np
332.97 31.68 m
0 262.84 l
o
1.07 setlinewidth
[] 0 setdash
np
38.38 31.68 m
316.14 0 l
o
np
38.38 97.39 m
316.14 0 l
o
np
38.38 163.10 m
316.14 0 l
o
np
38.38 228.81 m
316.14 0 l
o
np
38.38 294.52 m
316.14 0 l
o
np
81.49 31.68 m
0 262.84 l
o
np
153.34 31.68 m
0 262.84 l
o
np
225.19 31.68 m
0 262.84 l
o
np
297.04 31.68 m
0 262.84 l
o
/bg { 0.2667 0.0039 0.3294 srgb } def
np
 38.38 294.52 m
14.37 0 l
14.37 0 l
14.37 0 l
14.37 0 l
14.37 0 l
14.37 0 l
14.37 0 l
14.37 0 l
14.37 0 l
14.37 0 l
14.37 0 l
14.37 0 l
14.37 0 l
14.37 0 l
14.37 0 l
14.37 0 l
14.37 0 l
14.37 0 l
14.37 0 l
14.37 0 l
14.37 0 l
14.37 0 l
0 -262.84 l
-14.37 0 l
-14.37 0 l
-14.37 0 l
-14.37 0 l
-14.37 0 l
-14.37 0 l
-14.37 0 l
-14.37 0 l
-14.37 0 l
-14.37 0 l
-14.37 0 l
-14.37 0 l
-14.37 0 l
-14.37 0 l
-14.37 0 l
-14.37 0 l
-14.37 0 l
-14.37 0 l
-14.37 0 l
-14.37 0 l
-14.37 0 l
-14.37 0 l
cp p2
/bg { 0.4784 0.8196 0.3176 srgb } def
np
 38.38 47.11 m
14.37 15.98 l
14.37 36.40 l
14.37 1.18 l
14.37 0.06 l
14.37 -0.66 l
14.37 3.00 l
14.37 -0.66 l
14.37 -3.73 l
14.37 2.86 l
14.37 3.31 l
14.37 -4.15 l
14.37 3.26 l
14.37 1.97 l
14.37 0.40 l
14.37 16.53 l
14.37 -6.78 l
14.37 -8.05 l
14.37 -7.96 l
14.37 -8.86 l
14.37 19.06 l
14.37 -0.84 l
14.37 -5.76 l
0 -71.99 l
-14.37 0 l
-14.37 0 l
-14.37 0 l
-14.37 0 l
-14.37 0 l
-14.37 0 l
-14.37 0 l
-14.37 0 l
-14.37 0 l
-14.37 0 l
-14.37 0 l
-14.37 0 l
-14.37 0 l
-14.37 0 l
-14.37 0 l
-14.37 0 l
-14.37 0 l
-14.37 0 l
-14.37 0 l
-14.37 0 l
-14.37 0 l
-14.37 0 l
cp p2
/bg { 0.1647 0.4706 0.5569 srgb } def
np
 38.38 34.94 m
14.37 3.94 l
14.37 0.95 l
14.37 1.99 l
14.37 1.95 l
14.37 2.89 l
14.37 2.81 l
14.37 1.26 l
14.37 2.79 l
14.37 2.73 l
14.37 2.45 l
14.37 1.60 l
14.37 2.81 l
14.37 1.66 l
14.37 2.94 l
14.37 5.39 l
14.37 -1.08 l
14.37 1.27 l
14.37 2.62 l
14.37 -1.28 l
14.37 4.94 l
14.37 1.47 l
14.37 -5.42 l
0 -43.94 l
-14.37 0 l
-14.37 0 l
-14.37 0 l
-14.37 0 l
-14.37 0 l
-14.37 0 l
-14.37 0 l
-14.37 0 l
-14.37 0 l
-14.37 0 l
-14.37 0 l
-14.37 0 l
-14.37 0 l
-14.37 0 l
-14.37 0 l
-14.37 0 l
-14.37 0 l
-14.37 0 l
-14.37 0 l
-14.37 0 l
-14.37 0 l
-14.37 0 l
cp p2
0.2000 0.2000 0.2000 srgb
1 setlinecap
38.38 31.68 316.14 262.84 r p1
0.00 0.00 450.00 300.00 cl
0.00 0.00 450.00 300.00 cl
0.00 0.00 450.00 300.00 cl
0.00 0.00 450.00 300.00 cl
0.00 0.00 450.00 300.00 cl
0.00 0.00 450.00 300.00 cl
0.00 0.00 450.00 300.00 cl
0.00 0.00 450.00 300.00 cl
0.00 0.00 450.00 300.00 cl
0.00 0.00 450.00 300.00 cl
0.00 0.00 450.00 300.00 cl
0.00 0.00 450.00 300.00 cl
0.00 0.00 450.00 300.00 cl
0.00 0.00 450.00 300.00 cl
0.00 0.00 450.00 300.00 cl
0.00 0.00 450.00 300.00 cl
/Font1 findfont 9 s
0.3020 0.3020 0.3020 srgb
33.44 28.45 (0) 1 0 t
33.44 94.16 (25) 1 0 t
33.44 159.87 (50) 1 0 t
33.44 225.58 (75) 1 0 t
33.44 291.29 (100) 1 0 t
0.00 0.00 450.00 300.00 cl
0.00 0.00 450.00 300.00 cl
0.2000 0.2000 0.2000 srgb
1.07 setlinewidth
[] 0 setdash
0 setlinecap
1 setlinejoin
10.00 setmiterlimit
np
35.64 31.68 m
2.74 0 l
o
np
35.64 97.39 m
2.74 0 l
o
np
35.64 163.10 m
2.74 0 l
o
np
35.64 228.81 m
2.74 0 l
o
np
35.64 294.52 m
2.74 0 l
o
0.00 0.00 450.00 300.00 cl
0.00 0.00 450.00 300.00 cl
0.00 0.00 450.00 300.00 cl
0.00 0.00 450.00 300.00 cl
0.00 0.00 450.00 300.00 cl
0.00 0.00 450.00 300.00 cl
0.00 0.00 450.00 300.00 cl
0.00 0.00 450.00 300.00 cl
0.00 0.00 450.00 300.00 cl
0.00 0.00 450.00 300.00 cl
0.2000 0.2000 0.2000 srgb
1.07 setlinewidth
[] 0 setdash
0 setlinecap
1 setlinejoin
10.00 setmiterlimit
np
81.49 28.94 m
0 2.74 l
o
np
153.34 28.94 m
0 2.74 l
o
np
225.19 28.94 m
0 2.74 l
o
np
297.04 28.94 m
0 2.74 l
o
0.00 0.00 450.00 300.00 cl
0.00 0.00 450.00 300.00 cl
/Font1 findfont 9 s
0.3020 0.3020 0.3020 srgb
81.49 20.28 (5) .5 0 t
153.34 20.28 (10) .5 0 t
225.19 20.28 (15) .5 0 t
297.04 20.28 (20) .5 0 t
0.00 0.00 450.00 300.00 cl
0.00 0.00 450.00 300.00 cl
0.00 0.00 450.00 300.00 cl
0.00 0.00 450.00 300.00 cl
0.00 0.00 450.00 300.00 cl
0.00 0.00 450.00 300.00 cl
/Font1 findfont 11 s
0 0 0 srgb
106.26 7.79 (                         Number of MPI r) 0 ta
-0.110 (anks) tb gr
0.00 0.00 450.00 300.00 cl
0.00 0.00 450.00 300.00 cl
/Font1 findfont 11 s
0 0 0 srgb
13.38 104.25 (P) 90 ta
-0.550 (ercentage of w) tb
-0.165 (all-time) tb gr
0.00 0.00 450.00 300.00 cl
0.00 0.00 450.00 300.00 cl
0.00 0.00 450.00 300.00 cl
0.00 0.00 450.00 300.00 cl
0.00 0.00 450.00 300.00 cl
0.00 0.00 450.00 300.00 cl
0.00 0.00 450.00 300.00 cl
0.00 0.00 450.00 300.00 cl
0.00 0.00 450.00 300.00 cl
0.00 0.00 450.00 300.00 cl
0.00 0.00 450.00 300.00 cl
0.00 0.00 450.00 300.00 cl
0.00 0.00 450.00 300.00 cl
0.00 0.00 450.00 300.00 cl
/bg { 0.2667 0.0039 0.3294 srgb } def
61.10 274.85 15.86 15.86 r p2
0.00 0.00 450.00 300.00 cl
0.00 0.00 450.00 300.00 cl
/bg { 0.2667 0.0039 0.3294 srgb } def
61.10 274.85 15.86 15.86 r p2
0.00 0.00 450.00 300.00 cl
0.00 0.00 450.00 300.00 cl
0.00 0.00 450.00 300.00 cl
0.00 0.00 450.00 300.00 cl
/bg { 0.1647 0.4706 0.5569 srgb } def
61.10 257.57 15.86 15.86 r p2
0.00 0.00 450.00 300.00 cl
0.00 0.00 450.00 300.00 cl
/bg { 0.1647 0.4706 0.5569 srgb } def
61.10 257.57 15.86 15.86 r p2
0.00 0.00 450.00 300.00 cl
0.00 0.00 450.00 300.00 cl
0.00 0.00 450.00 300.00 cl
0.00 0.00 450.00 300.00 cl
/bg { 0.4784 0.8196 0.3176 srgb } def
61.10 240.29 15.86 15.86 r p2
0.00 0.00 450.00 300.00 cl
0.00 0.00 450.00 300.00 cl
/bg { 0.4784 0.8196 0.3176 srgb } def
61.10 240.29 15.86 15.86 r p2
0.00 0.00 450.00 300.00 cl
0.00 0.00 450.00 300.00 cl
0.00 0.00 450.00 300.00 cl
0.00 0.00 450.00 300.00 cl
0.00 0.00 450.00 300.00 cl
0.00 0.00 450.00 300.00 cl
0.00 0.00 450.00 300.00 cl
0.00 0.00 450.00 300.00 cl
0.00 0.00 450.00 300.00 cl
/Font1 findfont 9 s
1 1 1 srgb
83.15 262.27 (MPI_Allgather) 0 ta
0.270 (v) tb gr
0.00 0.00 450.00 300.00 cl
0.00 0.00 450.00 300.00 cl
0.00 0.00 450.00 300.00 cl
0.00 0.00 450.00 300.00 cl
0.00 0.00 450.00 300.00 cl
/Font1 findfont 9 s
1 1 1 srgb
83.15 244.99 (MPI_Allreduce) 0 0 t
0.00 0.00 450.00 300.00 cl
0.00 0.00 450.00 300.00 cl
0.00 0.00 450.00 300.00 cl
0.00 0.00 450.00 300.00 cl
0.00 0.00 450.00 300.00 cl
0.00 0.00 450.00 300.00 cl
0.00 0.00 450.00 300.00 cl
0.00 0.00 450.00 300.00 cl
0.00 0.00 450.00 300.00 cl
0.00 0.00 450.00 300.00 cl
0.00 0.00 450.00 300.00 cl
0.00 0.00 450.00 300.00 cl
0.00 0.00 450.00 300.00 cl
0.00 0.00 450.00 300.00 cl
0.00 0.00 450.00 300.00 cl
0.00 0.00 450.00 300.00 cl
0.00 0.00 450.00 300.00 cl
0.00 0.00 450.00 300.00 cl
0.00 0.00 450.00 300.00 cl
360.00 0.00 450.00 300.00 cl
/bg { 1 1 1 srgb } def
1 1 1 srgb
1.07 setlinewidth
[] 0 setdash
1 setlinecap
1 setlinejoin
10.00 setmiterlimit
360.00 0.00 90.00 300.00 r p3
0.00 0.00 450.00 300.00 cl
373.27 31.68 444.52 294.52 cl
/bg { 1 1 1 srgb } def
373.27 31.68 71.25 262.84 r p2
0.9216 0.9216 0.9216 srgb
0.53 setlinewidth
[] 0 setdash
0 setlinecap
1 setlinejoin
10.00 setmiterlimit
np
373.27 64.53 m
71.25 0 l
o
np
373.27 130.24 m
71.25 0 l
o
np
373.27 195.95 m
71.25 0 l
o
np
373.27 261.67 m
71.25 0 l
o
1.07 setlinewidth
[] 0 setdash
np
373.27 31.68 m
71.25 0 l
o
np
373.27 97.39 m
71.25 0 l
o
np
373.27 163.10 m
71.25 0 l
o
np
373.27 228.81 m
71.25 0 l
o
np
373.27 294.52 m
71.25 0 l
o
np
391.09 31.68 m
0 262.84 l
o
/bg { 0.2667 0.0039 0.3294 srgb } def
np
 373.27 294.52 m
17.82 0 l
17.81 0 l
17.81 0 l
17.81 0 l
0 -262.84 l
-17.81 0 l
-17.81 0 l
-17.81 0 l
-17.82 0 l
cp p2
/bg { 0.4784 0.8196 0.3176 srgb } def
np
 373.27 128.25 m
17.82 -0.98 l
17.81 -0.86 l
17.81 0.73 l
17.81 2.16 l
0 -97.62 l
-17.81 0 l
-17.81 0 l
-17.81 0 l
-17.82 0 l
cp p2
/bg { 0.1647 0.4706 0.5569 srgb } def
np
 373.27 101.80 m
17.82 1.74 l
17.81 0.08 l
17.81 2.34 l
17.81 0 l
0 -74.28 l
-17.81 0 l
-17.81 0 l
-17.81 0 l
-17.82 0 l
cp p2
0.2000 0.2000 0.2000 srgb
1 setlinecap
373.27 31.68 71.25 262.84 r p1
0.00 0.00 450.00 300.00 cl
0.00 0.00 450.00 300.00 cl
0.00 0.00 450.00 300.00 cl
0.00 0.00 450.00 300.00 cl
0.00 0.00 450.00 300.00 cl
0.00 0.00 450.00 300.00 cl
0.00 0.00 450.00 300.00 cl
0.00 0.00 450.00 300.00 cl
0.00 0.00 450.00 300.00 cl
0.00 0.00 450.00 300.00 cl
0.00 0.00 450.00 300.00 cl
0.00 0.00 450.00 300.00 cl
0.00 0.00 450.00 300.00 cl
0.00 0.00 450.00 300.00 cl
0.00 0.00 450.00 300.00 cl
0.00 0.00 450.00 300.00 cl
0.00 0.00 450.00 300.00 cl
0.00 0.00 450.00 300.00 cl
0.00 0.00 450.00 300.00 cl
0.00 0.00 450.00 300.00 cl
0.00 0.00 450.00 300.00 cl
0.00 0.00 450.00 300.00 cl
0.00 0.00 450.00 300.00 cl
0.00 0.00 450.00 300.00 cl
0.00 0.00 450.00 300.00 cl
0.2000 0.2000 0.2000 srgb
1.07 setlinewidth
[] 0 setdash
0 setlinecap
1 setlinejoin
10.00 setmiterlimit
np
391.09 28.94 m
0 2.74 l
o
0.00 0.00 450.00 300.00 cl
0.00 0.00 450.00 300.00 cl
/Font1 findfont 9 s
0.3020 0.3020 0.3020 srgb
391.09 20.28 (45) .5 0 t
0.00 0.00 450.00 300.00 cl
0.00 0.00 450.00 300.00 cl
0.00 0.00 450.00 300.00 cl
0.00 0.00 450.00 300.00 cl
0.00 0.00 450.00 300.00 cl
0.00 0.00 450.00 300.00 cl
0.00 0.00 450.00 300.00 cl
0.00 0.00 450.00 300.00 cl
0.00 0.00 450.00 300.00 cl
0.00 0.00 450.00 300.00 cl
0.00 0.00 450.00 300.00 cl
0.00 0.00 450.00 300.00 cl
0.00 0.00 450.00 300.00 cl
0.00 0.00 450.00 300.00 cl
0.00 0.00 450.00 300.00 cl
0.00 0.00 450.00 300.00 cl
0.00 0.00 450.00 300.00 cl
0.00 0.00 450.00 300.00 cl
0.00 0.00 450.00 300.00 cl
0.00 0.00 450.00 300.00 cl
0.00 0.00 450.00 300.00 cl
ep
%%Trailer
%%Pages: 1
%%EOF
