%!PS-Adobe-3.0 EPSF-3.0
%%DocumentNeededResources: font Helvetica
%%+ font Helvetica-Bold
%%+ font Helvetica-Oblique
%%+ font Helvetica-BoldOblique
%%+ font Symbol
%%Title: R Graphics Output
%%Creator: R Software
%%Pages: (atend)
%%BoundingBox: 0 0 450 300
%%EndComments
%%BeginProlog
/bp  { gs sRGB gs } def
% begin .ps.prolog
/gs  { gsave } bind def
/gr  { grestore } bind def
/ep  { showpage gr gr } bind def
/m   { moveto } bind def
/l  { rlineto } bind def
/np  { newpath } bind def
/cp  { closepath } bind def
/f   { fill } bind def
/o   { stroke } bind def
/c   { newpath 0 360 arc } bind def
/r   { 4 2 roll moveto 1 copy 3 -1 roll exch 0 exch rlineto 0 rlineto -1 mul 0 exch rlineto closepath } bind def
/p1  { stroke } bind def
/p2  { gsave bg fill grestore newpath } bind def
/p3  { gsave bg fill grestore stroke } bind def
/p6  { gsave bg eofill grestore newpath } bind def
/p7  { gsave bg eofill grestore stroke } bind def
/t   { 5 -2 roll moveto gsave rotate
       1 index stringwidth pop
       mul neg 0 rmoveto show grestore } bind def
/ta  { 4 -2 roll moveto gsave rotate show } bind def
/tb  { 2 -1 roll 0 rmoveto show } bind def
/cl  { grestore gsave newpath 3 index 3 index moveto 1 index
       4 -1 roll lineto  exch 1 index lineto lineto
       closepath clip newpath } bind def
/rgb { setrgbcolor } bind def
/s   { scalefont setfont } bind def
% end   .ps.prolog
/sRGB { [ /CIEBasedABC
          << /DecodeLMN
               [ { dup 0.03928 le
                        {12.92321 div}
                        {0.055 add 1.055 div 2.4 exp }
                     ifelse
                 } bind dup dup
               ]
             /MatrixLMN [0.412457 0.212673 0.019334
                         0.357576 0.715152 0.119192
                         0.180437 0.072175 0.950301]
             /WhitePoint [0.9505 1.0 1.0890]
           >>
         ] setcolorspace } bind def
/srgb { setcolor } bind def
%%IncludeResource: font Helvetica
/Helvetica findfont
dup length dict begin
  {1 index /FID ne {def} {pop pop} ifelse} forall
  /Encoding ISOLatin1Encoding def
  currentdict
  end
/Font1 exch definefont pop
%%IncludeResource: font Helvetica-Bold
/Helvetica-Bold findfont
dup length dict begin
  {1 index /FID ne {def} {pop pop} ifelse} forall
  /Encoding ISOLatin1Encoding def
  currentdict
  end
/Font2 exch definefont pop
%%IncludeResource: font Helvetica-Oblique
/Helvetica-Oblique findfont
dup length dict begin
  {1 index /FID ne {def} {pop pop} ifelse} forall
  /Encoding ISOLatin1Encoding def
  currentdict
  end
/Font3 exch definefont pop
%%IncludeResource: font Helvetica-BoldOblique
/Helvetica-BoldOblique findfont
dup length dict begin
  {1 index /FID ne {def} {pop pop} ifelse} forall
  /Encoding ISOLatin1Encoding def
  currentdict
  end
/Font4 exch definefont pop
%%IncludeResource: font Symbol
/Symbol findfont
dup length dict begin
  {1 index /FID ne {def} {pop pop} ifelse} forall
  currentdict
  end
/Font5 exch definefont pop
%%EndProlog
%%Page: 1 1
bp
0.00 0.00 450.00 300.00 cl
0.00 0.00 450.00 300.00 cl
0.00 0.00 450.00 300.00 cl
0.00 0.00 450.00 300.00 cl
0.00 0.00 450.00 300.00 cl
0.00 0.00 450.00 300.00 cl
0.00 0.00 450.00 300.00 cl
0.00 0.00 450.00 300.00 cl
0.00 0.00 450.00 300.00 cl
0.00 0.00 360.00 300.00 cl
/bg { 1 1 1 srgb } def
1 1 1 srgb
1.07 setlinewidth
[] 0 setdash
1 setlinecap
1 setlinejoin
10.00 setmiterlimit
0.00 0.00 360.00 300.00 r p3
0.00 0.00 450.00 300.00 cl
33.37 31.68 354.52 294.52 cl
/bg { 1 1 1 srgb } def
33.37 31.68 321.15 262.84 r p2
0.9216 0.9216 0.9216 srgb
0.53 setlinewidth
[] 0 setdash
0 setlinecap
1 setlinejoin
10.00 setmiterlimit
np
33.37 68.52 m
321.15 0 l
o
np
33.37 118.30 m
321.15 0 l
o
np
33.37 168.08 m
321.15 0 l
o
np
33.37 217.86 m
321.15 0 l
o
np
33.37 267.64 m
321.15 0 l
o
np
78.38 31.68 m
0 262.84 l
o
np
139.20 31.68 m
0 262.84 l
o
np
200.03 31.68 m
0 262.84 l
o
np
260.85 31.68 m
0 262.84 l
o
np
321.68 31.68 m
0 262.84 l
o
1.07 setlinewidth
[] 0 setdash
np
33.37 43.62 m
321.15 0 l
o
np
33.37 93.41 m
321.15 0 l
o
np
33.37 143.19 m
321.15 0 l
o
np
33.37 192.97 m
321.15 0 l
o
np
33.37 242.75 m
321.15 0 l
o
np
33.37 292.53 m
321.15 0 l
o
np
47.97 31.68 m
0 262.84 l
o
np
108.79 31.68 m
0 262.84 l
o
np
169.62 31.68 m
0 262.84 l
o
np
230.44 31.68 m
0 262.84 l
o
np
291.26 31.68 m
0 262.84 l
o
np
352.09 31.68 m
0 262.84 l
o
/bg { 0.1647 0.4706 0.5569 srgb } def
0.1647 0.4706 0.5569 srgb
0.71 setlinewidth
[] 0 setdash
1 setlinecap
60.13 50.41 1.95 c p3
169.62 84.52 1.95 c p3
181.78 87.10 1.95 c p3
193.95 89.46 1.95 c p3
206.11 90.60 1.95 c p3
218.28 92.57 1.95 c p3
230.44 94.18 1.95 c p3
242.61 95.91 1.95 c p3
254.77 107.33 1.95 c p3
266.93 114.44 1.95 c p3
279.10 121.35 1.95 c p3
72.30 59.05 1.95 c p3
291.26 127.25 1.95 c p3
303.43 133.79 1.95 c p3
315.59 99.86 1.95 c p3
327.76 100.89 1.95 c p3
339.92 135.18 1.95 c p3
84.46 64.77 1.95 c p3
96.63 64.36 1.95 c p3
108.79 69.41 1.95 c p3
120.96 72.30 1.95 c p3
133.12 75.11 1.95 c p3
145.29 79.17 1.95 c p3
157.45 82.95 1.95 c p3
/bg { 0.2667 0.0039 0.3294 srgb } def
0.2667 0.0039 0.3294 srgb
60.13 48.60 1.95 c p3
169.62 73.63 1.95 c p3
181.78 75.52 1.95 c p3
193.95 77.26 1.95 c p3
206.11 78.09 1.95 c p3
218.28 79.54 1.95 c p3
230.44 80.72 1.95 c p3
242.61 81.98 1.95 c p3
254.77 90.36 1.95 c p3
266.93 95.58 1.95 c p3
279.10 100.65 1.95 c p3
72.30 54.94 1.95 c p3
291.26 104.98 1.95 c p3
303.43 109.78 1.95 c p3
315.59 84.88 1.95 c p3
327.76 85.64 1.95 c p3
339.92 110.80 1.95 c p3
84.46 59.14 1.95 c p3
96.63 58.84 1.95 c p3
108.79 62.54 1.95 c p3
120.96 64.66 1.95 c p3
133.12 66.72 1.95 c p3
145.29 69.70 1.95 c p3
157.45 72.48 1.95 c p3
0.4784 0.8196 0.3176 srgb
1.07 setlinewidth
[] 0 setdash
0 setlinecap
np
60.13 48.60 m
12.17 4.98 l
12.16 4.98 l
12.17 4.98 l
12.16 4.98 l
12.17 4.97 l
12.16 4.98 l
12.17 4.98 l
12.16 4.98 l
12.17 4.98 l
12.16 4.97 l
12.17 4.98 l
12.16 4.98 l
12.17 4.98 l
12.16 4.98 l
12.17 4.97 l
12.16 4.98 l
12.16 4.98 l
12.17 4.98 l
12.16 4.98 l
12.17 4.97 l
12.16 4.98 l
12.17 4.98 l
12.16 4.98 l
o
0.2000 0.2000 0.2000 srgb
1 setlinecap
33.37 31.68 321.15 262.84 r p1
0.00 0.00 450.00 300.00 cl
0.00 0.00 450.00 300.00 cl
0.00 0.00 450.00 300.00 cl
0.00 0.00 450.00 300.00 cl
0.00 0.00 450.00 300.00 cl
0.00 0.00 450.00 300.00 cl
0.00 0.00 450.00 300.00 cl
0.00 0.00 450.00 300.00 cl
0.00 0.00 450.00 300.00 cl
0.00 0.00 450.00 300.00 cl
0.00 0.00 450.00 300.00 cl
0.00 0.00 450.00 300.00 cl
0.00 0.00 450.00 300.00 cl
0.00 0.00 450.00 300.00 cl
0.00 0.00 450.00 300.00 cl
0.00 0.00 450.00 300.00 cl
/Font1 findfont 9 s
0.3020 0.3020 0.3020 srgb
28.44 40.39 (0) 1 0 t
28.44 90.17 (10) 1 0 t
28.44 139.96 (20) 1 0 t
28.44 189.74 (30) 1 0 t
28.44 239.52 (40) 1 0 t
28.44 289.30 (50) 1 0 t
0.00 0.00 450.00 300.00 cl
0.00 0.00 450.00 300.00 cl
0.2000 0.2000 0.2000 srgb
1.07 setlinewidth
[] 0 setdash
0 setlinecap
1 setlinejoin
10.00 setmiterlimit
np
30.63 43.62 m
2.74 0 l
o
np
30.63 93.41 m
2.74 0 l
o
np
30.63 143.19 m
2.74 0 l
o
np
30.63 192.97 m
2.74 0 l
o
np
30.63 242.75 m
2.74 0 l
o
np
30.63 292.53 m
2.74 0 l
o
0.00 0.00 450.00 300.00 cl
0.00 0.00 450.00 300.00 cl
0.00 0.00 450.00 300.00 cl
0.00 0.00 450.00 300.00 cl
0.00 0.00 450.00 300.00 cl
0.00 0.00 450.00 300.00 cl
0.00 0.00 450.00 300.00 cl
0.00 0.00 450.00 300.00 cl
0.00 0.00 450.00 300.00 cl
0.00 0.00 450.00 300.00 cl
0.2000 0.2000 0.2000 srgb
1.07 setlinewidth
[] 0 setdash
0 setlinecap
1 setlinejoin
10.00 setmiterlimit
np
47.97 28.94 m
0 2.74 l
o
np
108.79 28.94 m
0 2.74 l
o
np
169.62 28.94 m
0 2.74 l
o
np
230.44 28.94 m
0 2.74 l
o
np
291.26 28.94 m
0 2.74 l
o
np
352.09 28.94 m
0 2.74 l
o
0.00 0.00 450.00 300.00 cl
0.00 0.00 450.00 300.00 cl
/Font1 findfont 9 s
0.3020 0.3020 0.3020 srgb
47.97 20.28 (0) .5 0 t
108.79 20.28 (5) .5 0 t
169.62 20.28 (10) .5 0 t
230.44 20.28 (15) .5 0 t
291.26 20.28 (20) .5 0 t
352.09 20.28 (25) .5 0 t
0.00 0.00 450.00 300.00 cl
0.00 0.00 450.00 300.00 cl
0.00 0.00 450.00 300.00 cl
0.00 0.00 450.00 300.00 cl
0.00 0.00 450.00 300.00 cl
0.00 0.00 450.00 300.00 cl
/Font1 findfont 11 s
0 0 0 srgb
103.76 7.79 (                         Number of MPI r) 0 ta
-0.110 (anks) tb gr
0.00 0.00 450.00 300.00 cl
0.00 0.00 450.00 300.00 cl
/Font1 findfont 11 s
0 0 0 srgb
13.38 163.10 (Speedup) .5 90 t
0.00 0.00 450.00 300.00 cl
0.00 0.00 450.00 300.00 cl
0.00 0.00 450.00 300.00 cl
0.00 0.00 450.00 300.00 cl
0.00 0.00 450.00 300.00 cl
0.00 0.00 450.00 300.00 cl
0.00 0.00 450.00 300.00 cl
0.00 0.00 450.00 300.00 cl
0.00 0.00 450.00 300.00 cl
0.00 0.00 450.00 300.00 cl
0.00 0.00 450.00 300.00 cl
0.00 0.00 450.00 300.00 cl
0.00 0.00 450.00 300.00 cl
0.00 0.00 450.00 300.00 cl
/bg { 0.2667 0.0039 0.3294 srgb } def
0.2667 0.0039 0.3294 srgb
0.71 setlinewidth
[] 0 setdash
1 setlinecap
1 setlinejoin
10.00 setmiterlimit
71.29 269.63 1.95 c p3
0.00 0.00 450.00 300.00 cl
0.00 0.00 450.00 300.00 cl
/bg { 0.2667 0.0039 0.3294 srgb } def
0.2667 0.0039 0.3294 srgb
0.71 setlinewidth
[] 0 setdash
1 setlinecap
1 setlinejoin
10.00 setmiterlimit
71.29 269.63 1.95 c p3
0.00 0.00 450.00 300.00 cl
0.00 0.00 450.00 300.00 cl
0.2667 0.0039 0.3294 srgb
1.07 setlinewidth
[] 0 setdash
0 setlinecap
1 setlinejoin
10.00 setmiterlimit
np
64.38 269.63 m
13.82 0 l
o
0.00 0.00 450.00 300.00 cl
0.00 0.00 450.00 300.00 cl
0.00 0.00 450.00 300.00 cl
0.00 0.00 450.00 300.00 cl
/bg { 0.1647 0.4706 0.5569 srgb } def
0.1647 0.4706 0.5569 srgb
0.71 setlinewidth
[] 0 setdash
1 setlinecap
1 setlinejoin
10.00 setmiterlimit
71.29 252.35 1.95 c p3
0.00 0.00 450.00 300.00 cl
0.00 0.00 450.00 300.00 cl
/bg { 0.1647 0.4706 0.5569 srgb } def
0.1647 0.4706 0.5569 srgb
0.71 setlinewidth
[] 0 setdash
1 setlinecap
1 setlinejoin
10.00 setmiterlimit
71.29 252.35 1.95 c p3
0.00 0.00 450.00 300.00 cl
0.00 0.00 450.00 300.00 cl
0.1647 0.4706 0.5569 srgb
1.07 setlinewidth
[] 0 setdash
0 setlinecap
1 setlinejoin
10.00 setmiterlimit
np
64.38 252.35 m
13.82 0 l
o
0.00 0.00 450.00 300.00 cl
0.00 0.00 450.00 300.00 cl
0.00 0.00 450.00 300.00 cl
0.00 0.00 450.00 300.00 cl
/bg { 0.4784 0.8196 0.3176 srgb } def
0.4784 0.8196 0.3176 srgb
0.71 setlinewidth
[] 0 setdash
1 setlinecap
1 setlinejoin
10.00 setmiterlimit
71.29 235.07 1.95 c p3
0.00 0.00 450.00 300.00 cl
0.00 0.00 450.00 300.00 cl
/bg { 0.4784 0.8196 0.3176 srgb } def
0.4784 0.8196 0.3176 srgb
0.71 setlinewidth
[] 0 setdash
1 setlinecap
1 setlinejoin
10.00 setmiterlimit
71.29 235.07 1.95 c p3
0.00 0.00 450.00 300.00 cl
0.00 0.00 450.00 300.00 cl
0.4784 0.8196 0.3176 srgb
1.07 setlinewidth
[] 0 setdash
0 setlinecap
1 setlinejoin
10.00 setmiterlimit
np
64.38 235.07 m
13.82 0 l
o
0.00 0.00 450.00 300.00 cl
0.00 0.00 450.00 300.00 cl
0.00 0.00 450.00 300.00 cl
0.00 0.00 450.00 300.00 cl
/Font1 findfont 9 s
0 0 0 srgb
85.41 266.40 (Baseline one r) 0 ta
-0.090 (ank) tb gr
0.00 0.00 450.00 300.00 cl
0.00 0.00 450.00 300.00 cl
0.00 0.00 450.00 300.00 cl
0.00 0.00 450.00 300.00 cl
0.00 0.00 450.00 300.00 cl
/Font1 findfont 9 s
0 0 0 srgb
85.41 249.12 (Baseline sequential) 0 0 t
0.00 0.00 450.00 300.00 cl
0.00 0.00 450.00 300.00 cl
0.00 0.00 450.00 300.00 cl
0.00 0.00 450.00 300.00 cl
0.00 0.00 450.00 300.00 cl
/Font1 findfont 9 s
0 0 0 srgb
85.41 231.84 (Ideal linear speedup) 0 0 t
0.00 0.00 450.00 300.00 cl
0.00 0.00 450.00 300.00 cl
0.00 0.00 450.00 300.00 cl
0.00 0.00 450.00 300.00 cl
0.00 0.00 450.00 300.00 cl
0.00 0.00 450.00 300.00 cl
0.00 0.00 450.00 300.00 cl
0.00 0.00 450.00 300.00 cl
0.00 0.00 450.00 300.00 cl
0.00 0.00 450.00 300.00 cl
0.00 0.00 450.00 300.00 cl
0.00 0.00 450.00 300.00 cl
0.00 0.00 450.00 300.00 cl
0.00 0.00 450.00 300.00 cl
0.00 0.00 450.00 300.00 cl
0.00 0.00 450.00 300.00 cl
0.00 0.00 450.00 300.00 cl
0.00 0.00 450.00 300.00 cl
0.00 0.00 450.00 300.00 cl
360.00 0.00 450.00 300.00 cl
/bg { 1 1 1 srgb } def
1 1 1 srgb
1.07 setlinewidth
[] 0 setdash
1 setlinecap
1 setlinejoin
10.00 setmiterlimit
360.00 0.00 90.00 300.00 r p3
0.00 0.00 450.00 300.00 cl
373.27 31.68 444.52 294.52 cl
/bg { 1 1 1 srgb } def
373.27 31.68 71.25 262.84 r p2
0.9216 0.9216 0.9216 srgb
0.53 setlinewidth
[] 0 setdash
0 setlinecap
1 setlinejoin
10.00 setmiterlimit
np
373.27 68.52 m
71.25 0 l
o
np
373.27 118.30 m
71.25 0 l
o
np
373.27 168.08 m
71.25 0 l
o
np
373.27 217.86 m
71.25 0 l
o
np
373.27 267.64 m
71.25 0 l
o
np
428.33 31.68 m
0 262.84 l
o
1.07 setlinewidth
[] 0 setdash
np
373.27 43.62 m
71.25 0 l
o
np
373.27 93.41 m
71.25 0 l
o
np
373.27 143.19 m
71.25 0 l
o
np
373.27 192.97 m
71.25 0 l
o
np
373.27 242.75 m
71.25 0 l
o
np
373.27 292.53 m
71.25 0 l
o
np
395.94 31.68 m
0 262.84 l
o
/bg { 0.1647 0.4706 0.5569 srgb } def
0.1647 0.4706 0.5569 srgb
0.71 setlinewidth
[] 0 setdash
1 setlinecap
382.99 196.91 1.95 c p3
395.94 200.29 1.95 c p3
408.90 202.66 1.95 c p3
421.85 204.01 1.95 c p3
434.81 203.26 1.95 c p3
/bg { 0.2667 0.0039 0.3294 srgb } def
0.2667 0.0039 0.3294 srgb
382.99 156.09 1.95 c p3
395.94 158.57 1.95 c p3
408.90 160.31 1.95 c p3
421.85 161.29 1.95 c p3
434.81 160.74 1.95 c p3
0.4784 0.8196 0.3176 srgb
1.07 setlinewidth
[] 0 setdash
0 setlinecap
np
382.99 262.66 m
12.95 4.98 l
12.96 4.98 l
12.95 4.98 l
12.96 4.97 l
o
0.2000 0.2000 0.2000 srgb
1 setlinecap
373.27 31.68 71.25 262.84 r p1
0.00 0.00 450.00 300.00 cl
0.00 0.00 450.00 300.00 cl
0.00 0.00 450.00 300.00 cl
0.00 0.00 450.00 300.00 cl
0.00 0.00 450.00 300.00 cl
0.00 0.00 450.00 300.00 cl
0.00 0.00 450.00 300.00 cl
0.00 0.00 450.00 300.00 cl
0.00 0.00 450.00 300.00 cl
0.00 0.00 450.00 300.00 cl
0.00 0.00 450.00 300.00 cl
0.00 0.00 450.00 300.00 cl
0.00 0.00 450.00 300.00 cl
0.00 0.00 450.00 300.00 cl
0.00 0.00 450.00 300.00 cl
0.00 0.00 450.00 300.00 cl
0.00 0.00 450.00 300.00 cl
0.00 0.00 450.00 300.00 cl
0.00 0.00 450.00 300.00 cl
0.00 0.00 450.00 300.00 cl
0.00 0.00 450.00 300.00 cl
0.00 0.00 450.00 300.00 cl
0.00 0.00 450.00 300.00 cl
0.00 0.00 450.00 300.00 cl
0.00 0.00 450.00 300.00 cl
0.2000 0.2000 0.2000 srgb
1.07 setlinewidth
[] 0 setdash
0 setlinecap
1 setlinejoin
10.00 setmiterlimit
np
395.94 28.94 m
0 2.74 l
o
0.00 0.00 450.00 300.00 cl
0.00 0.00 450.00 300.00 cl
/Font1 findfont 9 s
0.3020 0.3020 0.3020 srgb
395.94 20.28 (45) .5 0 t
0.00 0.00 450.00 300.00 cl
0.00 0.00 450.00 300.00 cl
0.00 0.00 450.00 300.00 cl
0.00 0.00 450.00 300.00 cl
0.00 0.00 450.00 300.00 cl
0.00 0.00 450.00 300.00 cl
0.00 0.00 450.00 300.00 cl
0.00 0.00 450.00 300.00 cl
0.00 0.00 450.00 300.00 cl
0.00 0.00 450.00 300.00 cl
0.00 0.00 450.00 300.00 cl
0.00 0.00 450.00 300.00 cl
0.00 0.00 450.00 300.00 cl
0.00 0.00 450.00 300.00 cl
0.00 0.00 450.00 300.00 cl
0.00 0.00 450.00 300.00 cl
0.00 0.00 450.00 300.00 cl
0.00 0.00 450.00 300.00 cl
0.00 0.00 450.00 300.00 cl
0.00 0.00 450.00 300.00 cl
0.00 0.00 450.00 300.00 cl
ep
%%Trailer
%%Pages: 1
%%EOF
