#Description:	Naive, three-loop dgemm.

Size: 31	Mflop/s:  2883.89	Percentage:  1.50
Size: 32	Mflop/s:  2518.13	Percentage:  1.31
Size: 33	Mflop/s:  2740.59	Percentage:  1.43
Size: 63	Mflop/s:   2329.2	Percentage:  1.21
Size: 64	Mflop/s:  2287.34	Percentage:  1.19
Size: 65	Mflop/s:  2302.37	Percentage:  1.20
Size: 95	Mflop/s:  1996.82	Percentage:  1.04
Size: 96	Mflop/s:  2086.74	Percentage:  1.09
Size: 97	Mflop/s:  2105.65	Percentage:  1.10
Size: 127	Mflop/s:  1884.23	Percentage:  0.98
Size: 128	Mflop/s:  1926.06	Percentage:  1.00
Size: 129	Mflop/s:   1940.8	Percentage:  1.01
Size: 159	Mflop/s:  1830.97	Percentage:  0.95
Size: 160	Mflop/s:  1847.16	Percentage:  0.96
Size: 161	Mflop/s:  1860.91	Percentage:  0.97
Size: 191	Mflop/s:  1764.75	Percentage:  0.92
Size: 192	Mflop/s:  1782.24	Percentage:  0.93
Size: 193	Mflop/s:  1790.85	Percentage:  0.93
Size: 223	Mflop/s:  1719.27	Percentage:  0.90
Size: 224	Mflop/s:  1733.16	Percentage:  0.90
Size: 225	Mflop/s:  1717.59	Percentage:  0.89
Size: 255	Mflop/s:  1677.54	Percentage:  0.87
Size: 256	Mflop/s:     1597	Percentage:  0.83
Size: 257	Mflop/s:  1670.83	Percentage:  0.87
Size: 287	Mflop/s:  1681.64	Percentage:  0.88
Size: 288	Mflop/s:  1666.34	Percentage:  0.87
Size: 289	Mflop/s:  1695.72	Percentage:  0.88
Size: 319	Mflop/s:  1664.65	Percentage:  0.87
Size: 320	Mflop/s:  1652.56	Percentage:  0.86
Size: 321	Mflop/s:  1669.47	Percentage:  0.87
Size: 351	Mflop/s:  1643.92	Percentage:  0.86
Size: 352	Mflop/s:  1649.54	Percentage:  0.86
Size: 353	Mflop/s:  1649.07	Percentage:  0.86
Size: 383	Mflop/s:  1639.17	Percentage:  0.85
Size: 384	Mflop/s:  1636.24	Percentage:  0.85
Size: 385	Mflop/s:  1639.58	Percentage:  0.85
Size: 415	Mflop/s:  1628.62	Percentage:  0.85
Size: 416	Mflop/s:  1631.48	Percentage:  0.85
Size: 417	Mflop/s:  1617.49	Percentage:  0.84
Size: 447	Mflop/s:  1600.34	Percentage:  0.83
Size: 448	Mflop/s:  1551.77	Percentage:  0.81
Size: 449	Mflop/s:  1569.15	Percentage:  0.82
Size: 479	Mflop/s:  1585.29	Percentage:  0.83
Size: 480	Mflop/s:  1553.19	Percentage:  0.81
Size: 481	Mflop/s:  1517.11	Percentage:  0.79
Size: 511	Mflop/s:  1604.89	Percentage:  0.84
Size: 512	Mflop/s:  599.816	Percentage:  0.31
Size: 513	Mflop/s:  1603.18	Percentage:  0.83
Size: 543	Mflop/s:  1602.88	Percentage:  0.83
Size: 544	Mflop/s:  1611.04	Percentage:  0.84
Size: 545	Mflop/s:  1614.11	Percentage:  0.84
Size: 575	Mflop/s:  1601.97	Percentage:  0.83
Size: 576	Mflop/s:  1611.61	Percentage:  0.84
Size: 577	Mflop/s:  1609.39	Percentage:  0.84
Size: 607	Mflop/s:  1606.51	Percentage:  0.84
Size: 608	Mflop/s:  1602.78	Percentage:  0.83
Size: 609	Mflop/s:  1592.23	Percentage:  0.83
Size: 639	Mflop/s:  1593.79	Percentage:  0.83
Size: 640	Mflop/s:   1550.1	Percentage:  0.81
Size: 641	Mflop/s:  1591.11	Percentage:  0.83
Size: 671	Mflop/s:  1591.99	Percentage:  0.83
Size: 672	Mflop/s:  1609.45	Percentage:  0.84
Size: 673	Mflop/s:  1601.61	Percentage:  0.83
Size: 703	Mflop/s:  1605.72	Percentage:  0.84
Size: 704	Mflop/s:  1607.61	Percentage:  0.84
Size: 705	Mflop/s:  1584.42	Percentage:  0.83
Size: 735	Mflop/s:  1583.74	Percentage:  0.82
Size: 736	Mflop/s:  1581.66	Percentage:  0.82
Size: 737	Mflop/s:  1605.55	Percentage:  0.84
Size: 767	Mflop/s:  1612.24	Percentage:  0.84
Size: 768	Mflop/s:  623.375	Percentage:  0.32
Size: 769	Mflop/s:  1571.61	Percentage:  0.82
Size: 799	Mflop/s:  1601.33	Percentage:  0.83
Size: 800	Mflop/s:  1610.33	Percentage:  0.84
Size: 801	Mflop/s:  1591.27	Percentage:  0.83
Size: 831	Mflop/s:  1529.64	Percentage:  0.80
Size: 832	Mflop/s:  1548.56	Percentage:  0.81
Size: 833	Mflop/s:  1599.53	Percentage:  0.83
Size: 863	Mflop/s:  1570.41	Percentage:  0.82
Size: 864	Mflop/s:  1534.36	Percentage:  0.80
Size: 865	Mflop/s:   1541.2	Percentage:  0.80
Size: 895	Mflop/s:  1599.61	Percentage:  0.83
Size: 896	Mflop/s:  1439.74	Percentage:  0.75
Size: 897	Mflop/s:  1521.59	Percentage:  0.79
Size: 927	Mflop/s:  1564.06	Percentage:  0.81
Size: 928	Mflop/s:  1570.01	Percentage:  0.82
Size: 929	Mflop/s:  1447.78	Percentage:  0.75
Size: 959	Mflop/s:  1486.29	Percentage:  0.77
Size: 960	Mflop/s:  1567.33	Percentage:  0.82
Size: 961	Mflop/s:  1492.45	Percentage:  0.78
Size: 991	Mflop/s:  1567.43	Percentage:  0.82
Size: 992	Mflop/s:  1525.73	Percentage:  0.79
Size: 993	Mflop/s:  1494.09	Percentage:  0.78
Size: 1023	Mflop/s:  1551.23	Percentage:  0.81
Size: 1024	Mflop/s:  549.178	Percentage:  0.29
Size: 1025	Mflop/s:  1592.36	Percentage:  0.83
#Average percentage of Peak = 0.864835
