%!PS-Adobe-2.0
%%Title: timing.ps
%%Creator: gnuplot 5.2 patchlevel 6
%%CreationDate: Mon Mar 15 20:22:08 2021
%%DocumentFonts: (atend)
%%BoundingBox: 50 50 554 770
%%Orientation: Landscape
%%Pages: (atend)
%%EndComments
%%BeginProlog
/gnudict 256 dict def
gnudict begin
%
% The following true/false flags may be edited by hand if desired.
% The unit line width and grayscale image gamma correction may also be changed.
%
/Color true def
/Blacktext false def
/Solid false def
/Dashlength 1 def
/Landscape true def
/Level1 false def
/Level3 false def
/Rounded false def
/ClipToBoundingBox false def
/SuppressPDFMark false def
/TransparentPatterns false def
/gnulinewidth 5.000 def
/userlinewidth gnulinewidth def
/Gamma 1.0 def
/BackgroundColor {-1.000 -1.000 -1.000} def
%
/vshift -46 def
/dl1 {
  10.0 Dashlength userlinewidth gnulinewidth div mul mul mul
  Rounded { currentlinewidth 0.75 mul sub dup 0 le { pop 0.01 } if } if
} def
/dl2 {
  10.0 Dashlength userlinewidth gnulinewidth div mul mul mul
  Rounded { currentlinewidth 0.75 mul add } if
} def
/hpt_ 31.5 def
/vpt_ 31.5 def
/hpt hpt_ def
/vpt vpt_ def
/doclip {
  ClipToBoundingBox {
    newpath 50 50 moveto 554 50 lineto 554 770 lineto 50 770 lineto closepath
    clip
  } if
} def
%
% Gnuplot Prolog Version 5.2 (Dec 2017)
%
%/SuppressPDFMark true def
%
/M {moveto} bind def
/L {lineto} bind def
/R {rmoveto} bind def
/V {rlineto} bind def
/N {newpath moveto} bind def
/Z {closepath} bind def
/C {setrgbcolor} bind def
/f {rlineto fill} bind def
/g {setgray} bind def
/Gshow {show} def   % May be redefined later in the file to support UTF-8
/vpt2 vpt 2 mul def
/hpt2 hpt 2 mul def
/Lshow {currentpoint stroke M 0 vshift R 
	Blacktext {gsave 0 setgray textshow grestore} {textshow} ifelse} def
/Rshow {currentpoint stroke M dup stringwidth pop neg vshift R
	Blacktext {gsave 0 setgray textshow grestore} {textshow} ifelse} def
/Cshow {currentpoint stroke M dup stringwidth pop -2 div vshift R 
	Blacktext {gsave 0 setgray textshow grestore} {textshow} ifelse} def
/UP {dup vpt_ mul /vpt exch def hpt_ mul /hpt exch def
  /hpt2 hpt 2 mul def /vpt2 vpt 2 mul def} def
/DL {Color {setrgbcolor Solid {pop []} if 0 setdash}
 {pop pop pop 0 setgray Solid {pop []} if 0 setdash} ifelse} def
/BL {stroke userlinewidth 2 mul setlinewidth
	Rounded {1 setlinejoin 1 setlinecap} if} def
/AL {stroke userlinewidth 2 div setlinewidth
	Rounded {1 setlinejoin 1 setlinecap} if} def
/UL {dup gnulinewidth mul /userlinewidth exch def
	dup 1 lt {pop 1} if 10 mul /udl exch def} def
/PL {stroke userlinewidth setlinewidth
	Rounded {1 setlinejoin 1 setlinecap} if} def
3.8 setmiterlimit
% Classic Line colors (version 5.0)
/LCw {1 1 1} def
/LCb {0 0 0} def
/LCa {0 0 0} def
/LC0 {1 0 0} def
/LC1 {0 1 0} def
/LC2 {0 0 1} def
/LC3 {1 0 1} def
/LC4 {0 1 1} def
/LC5 {1 1 0} def
/LC6 {0 0 0} def
/LC7 {1 0.3 0} def
/LC8 {0.5 0.5 0.5} def
% Default dash patterns (version 5.0)
/LTB {BL [] LCb DL} def
/LTw {PL [] 1 setgray} def
/LTb {PL [] LCb DL} def
/LTa {AL [1 udl mul 2 udl mul] 0 setdash LCa setrgbcolor} def
/LT0 {PL [] LC0 DL} def
/LT1 {PL [2 dl1 3 dl2] LC1 DL} def
/LT2 {PL [1 dl1 1.5 dl2] LC2 DL} def
/LT3 {PL [6 dl1 2 dl2 1 dl1 2 dl2] LC3 DL} def
/LT4 {PL [1 dl1 2 dl2 6 dl1 2 dl2 1 dl1 2 dl2] LC4 DL} def
/LT5 {PL [4 dl1 2 dl2] LC5 DL} def
/LT6 {PL [1.5 dl1 1.5 dl2 1.5 dl1 1.5 dl2 1.5 dl1 6 dl2] LC6 DL} def
/LT7 {PL [3 dl1 3 dl2 1 dl1 3 dl2] LC7 DL} def
/LT8 {PL [2 dl1 2 dl2 2 dl1 6 dl2] LC8 DL} def
/SL {[] 0 setdash} def
/Pnt {stroke [] 0 setdash gsave 1 setlinecap M 0 0 V stroke grestore} def
/Dia {stroke [] 0 setdash 2 copy vpt add M
  hpt neg vpt neg V hpt vpt neg V
  hpt vpt V hpt neg vpt V closepath stroke
  Pnt} def
/Pls {stroke [] 0 setdash vpt sub M 0 vpt2 V
  currentpoint stroke M
  hpt neg vpt neg R hpt2 0 V stroke
 } def
/Box {stroke [] 0 setdash 2 copy exch hpt sub exch vpt add M
  0 vpt2 neg V hpt2 0 V 0 vpt2 V
  hpt2 neg 0 V closepath stroke
  Pnt} def
/Crs {stroke [] 0 setdash exch hpt sub exch vpt add M
  hpt2 vpt2 neg V currentpoint stroke M
  hpt2 neg 0 R hpt2 vpt2 V stroke} def
/TriU {stroke [] 0 setdash 2 copy vpt 1.12 mul add M
  hpt neg vpt -1.62 mul V
  hpt 2 mul 0 V
  hpt neg vpt 1.62 mul V closepath stroke
  Pnt} def
/Star {2 copy Pls Crs} def
/BoxF {stroke [] 0 setdash exch hpt sub exch vpt add M
  0 vpt2 neg V hpt2 0 V 0 vpt2 V
  hpt2 neg 0 V closepath fill} def
/TriUF {stroke [] 0 setdash vpt 1.12 mul add M
  hpt neg vpt -1.62 mul V
  hpt 2 mul 0 V
  hpt neg vpt 1.62 mul V closepath fill} def
/TriD {stroke [] 0 setdash 2 copy vpt 1.12 mul sub M
  hpt neg vpt 1.62 mul V
  hpt 2 mul 0 V
  hpt neg vpt -1.62 mul V closepath stroke
  Pnt} def
/TriDF {stroke [] 0 setdash vpt 1.12 mul sub M
  hpt neg vpt 1.62 mul V
  hpt 2 mul 0 V
  hpt neg vpt -1.62 mul V closepath fill} def
/DiaF {stroke [] 0 setdash vpt add M
  hpt neg vpt neg V hpt vpt neg V
  hpt vpt V hpt neg vpt V closepath fill} def
/Pent {stroke [] 0 setdash 2 copy gsave
  translate 0 hpt M 4 {72 rotate 0 hpt L} repeat
  closepath stroke grestore Pnt} def
/PentF {stroke [] 0 setdash gsave
  translate 0 hpt M 4 {72 rotate 0 hpt L} repeat
  closepath fill grestore} def
/Circle {stroke [] 0 setdash 2 copy
  hpt 0 360 arc stroke Pnt} def
/CircleF {stroke [] 0 setdash hpt 0 360 arc fill} def
/C0 {BL [] 0 setdash 2 copy moveto vpt 90 450 arc} bind def
/C1 {BL [] 0 setdash 2 copy moveto
	2 copy vpt 0 90 arc closepath fill
	vpt 0 360 arc closepath} bind def
/C2 {BL [] 0 setdash 2 copy moveto
	2 copy vpt 90 180 arc closepath fill
	vpt 0 360 arc closepath} bind def
/C3 {BL [] 0 setdash 2 copy moveto
	2 copy vpt 0 180 arc closepath fill
	vpt 0 360 arc closepath} bind def
/C4 {BL [] 0 setdash 2 copy moveto
	2 copy vpt 180 270 arc closepath fill
	vpt 0 360 arc closepath} bind def
/C5 {BL [] 0 setdash 2 copy moveto
	2 copy vpt 0 90 arc
	2 copy moveto
	2 copy vpt 180 270 arc closepath fill
	vpt 0 360 arc} bind def
/C6 {BL [] 0 setdash 2 copy moveto
	2 copy vpt 90 270 arc closepath fill
	vpt 0 360 arc closepath} bind def
/C7 {BL [] 0 setdash 2 copy moveto
	2 copy vpt 0 270 arc closepath fill
	vpt 0 360 arc closepath} bind def
/C8 {BL [] 0 setdash 2 copy moveto
	2 copy vpt 270 360 arc closepath fill
	vpt 0 360 arc closepath} bind def
/C9 {BL [] 0 setdash 2 copy moveto
	2 copy vpt 270 450 arc closepath fill
	vpt 0 360 arc closepath} bind def
/C10 {BL [] 0 setdash 2 copy 2 copy moveto vpt 270 360 arc closepath fill
	2 copy moveto
	2 copy vpt 90 180 arc closepath fill
	vpt 0 360 arc closepath} bind def
/C11 {BL [] 0 setdash 2 copy moveto
	2 copy vpt 0 180 arc closepath fill
	2 copy moveto
	2 copy vpt 270 360 arc closepath fill
	vpt 0 360 arc closepath} bind def
/C12 {BL [] 0 setdash 2 copy moveto
	2 copy vpt 180 360 arc closepath fill
	vpt 0 360 arc closepath} bind def
/C13 {BL [] 0 setdash 2 copy moveto
	2 copy vpt 0 90 arc closepath fill
	2 copy moveto
	2 copy vpt 180 360 arc closepath fill
	vpt 0 360 arc closepath} bind def
/C14 {BL [] 0 setdash 2 copy moveto
	2 copy vpt 90 360 arc closepath fill
	vpt 0 360 arc} bind def
/C15 {BL [] 0 setdash 2 copy vpt 0 360 arc closepath fill
	vpt 0 360 arc closepath} bind def
/Rec {newpath 4 2 roll moveto 1 index 0 rlineto 0 exch rlineto
	neg 0 rlineto closepath} bind def
/Square {dup Rec} bind def
/Bsquare {vpt sub exch vpt sub exch vpt2 Square} bind def
/S0 {BL [] 0 setdash 2 copy moveto 0 vpt rlineto BL Bsquare} bind def
/S1 {BL [] 0 setdash 2 copy vpt Square fill Bsquare} bind def
/S2 {BL [] 0 setdash 2 copy exch vpt sub exch vpt Square fill Bsquare} bind def
/S3 {BL [] 0 setdash 2 copy exch vpt sub exch vpt2 vpt Rec fill Bsquare} bind def
/S4 {BL [] 0 setdash 2 copy exch vpt sub exch vpt sub vpt Square fill Bsquare} bind def
/S5 {BL [] 0 setdash 2 copy 2 copy vpt Square fill
	exch vpt sub exch vpt sub vpt Square fill Bsquare} bind def
/S6 {BL [] 0 setdash 2 copy exch vpt sub exch vpt sub vpt vpt2 Rec fill Bsquare} bind def
/S7 {BL [] 0 setdash 2 copy exch vpt sub exch vpt sub vpt vpt2 Rec fill
	2 copy vpt Square fill Bsquare} bind def
/S8 {BL [] 0 setdash 2 copy vpt sub vpt Square fill Bsquare} bind def
/S9 {BL [] 0 setdash 2 copy vpt sub vpt vpt2 Rec fill Bsquare} bind def
/S10 {BL [] 0 setdash 2 copy vpt sub vpt Square fill 2 copy exch vpt sub exch vpt Square fill
	Bsquare} bind def
/S11 {BL [] 0 setdash 2 copy vpt sub vpt Square fill 2 copy exch vpt sub exch vpt2 vpt Rec fill
	Bsquare} bind def
/S12 {BL [] 0 setdash 2 copy exch vpt sub exch vpt sub vpt2 vpt Rec fill Bsquare} bind def
/S13 {BL [] 0 setdash 2 copy exch vpt sub exch vpt sub vpt2 vpt Rec fill
	2 copy vpt Square fill Bsquare} bind def
/S14 {BL [] 0 setdash 2 copy exch vpt sub exch vpt sub vpt2 vpt Rec fill
	2 copy exch vpt sub exch vpt Square fill Bsquare} bind def
/S15 {BL [] 0 setdash 2 copy Bsquare fill Bsquare} bind def
/D0 {gsave translate 45 rotate 0 0 S0 stroke grestore} bind def
/D1 {gsave translate 45 rotate 0 0 S1 stroke grestore} bind def
/D2 {gsave translate 45 rotate 0 0 S2 stroke grestore} bind def
/D3 {gsave translate 45 rotate 0 0 S3 stroke grestore} bind def
/D4 {gsave translate 45 rotate 0 0 S4 stroke grestore} bind def
/D5 {gsave translate 45 rotate 0 0 S5 stroke grestore} bind def
/D6 {gsave translate 45 rotate 0 0 S6 stroke grestore} bind def
/D7 {gsave translate 45 rotate 0 0 S7 stroke grestore} bind def
/D8 {gsave translate 45 rotate 0 0 S8 stroke grestore} bind def
/D9 {gsave translate 45 rotate 0 0 S9 stroke grestore} bind def
/D10 {gsave translate 45 rotate 0 0 S10 stroke grestore} bind def
/D11 {gsave translate 45 rotate 0 0 S11 stroke grestore} bind def
/D12 {gsave translate 45 rotate 0 0 S12 stroke grestore} bind def
/D13 {gsave translate 45 rotate 0 0 S13 stroke grestore} bind def
/D14 {gsave translate 45 rotate 0 0 S14 stroke grestore} bind def
/D15 {gsave translate 45 rotate 0 0 S15 stroke grestore} bind def
/DiaE {stroke [] 0 setdash vpt add M
  hpt neg vpt neg V hpt vpt neg V
  hpt vpt V hpt neg vpt V closepath stroke} def
/BoxE {stroke [] 0 setdash exch hpt sub exch vpt add M
  0 vpt2 neg V hpt2 0 V 0 vpt2 V
  hpt2 neg 0 V closepath stroke} def
/TriUE {stroke [] 0 setdash vpt 1.12 mul add M
  hpt neg vpt -1.62 mul V
  hpt 2 mul 0 V
  hpt neg vpt 1.62 mul V closepath stroke} def
/TriDE {stroke [] 0 setdash vpt 1.12 mul sub M
  hpt neg vpt 1.62 mul V
  hpt 2 mul 0 V
  hpt neg vpt -1.62 mul V closepath stroke} def
/PentE {stroke [] 0 setdash gsave
  translate 0 hpt M 4 {72 rotate 0 hpt L} repeat
  closepath stroke grestore} def
/CircE {stroke [] 0 setdash 
  hpt 0 360 arc stroke} def
/Opaque {gsave closepath 1 setgray fill grestore 0 setgray closepath} def
/DiaW {stroke [] 0 setdash vpt add M
  hpt neg vpt neg V hpt vpt neg V
  hpt vpt V hpt neg vpt V Opaque stroke} def
/BoxW {stroke [] 0 setdash exch hpt sub exch vpt add M
  0 vpt2 neg V hpt2 0 V 0 vpt2 V
  hpt2 neg 0 V Opaque stroke} def
/TriUW {stroke [] 0 setdash vpt 1.12 mul add M
  hpt neg vpt -1.62 mul V
  hpt 2 mul 0 V
  hpt neg vpt 1.62 mul V Opaque stroke} def
/TriDW {stroke [] 0 setdash vpt 1.12 mul sub M
  hpt neg vpt 1.62 mul V
  hpt 2 mul 0 V
  hpt neg vpt -1.62 mul V Opaque stroke} def
/PentW {stroke [] 0 setdash gsave
  translate 0 hpt M 4 {72 rotate 0 hpt L} repeat
  Opaque stroke grestore} def
/CircW {stroke [] 0 setdash 
  hpt 0 360 arc Opaque stroke} def
/BoxFill {gsave Rec 1 setgray fill grestore} def
/Density {
  /Fillden exch def
  currentrgbcolor
  /ColB exch def /ColG exch def /ColR exch def
  /ColR ColR Fillden mul Fillden sub 1 add def
  /ColG ColG Fillden mul Fillden sub 1 add def
  /ColB ColB Fillden mul Fillden sub 1 add def
  ColR ColG ColB setrgbcolor} def
/BoxColFill {gsave Rec PolyFill} def
/PolyFill {gsave Density fill grestore grestore} def
/h {rlineto rlineto rlineto closepath gsave fill grestore stroke} bind def
%
% PostScript Level 1 Pattern Fill routine for rectangles
% Usage: x y w h s a XX PatternFill
%	x,y = lower left corner of box to be filled
%	w,h = width and height of box
%	  a = angle in degrees between lines and x-axis
%	 XX = 0/1 for no/yes cross-hatch
%
/PatternFill {gsave /PFa [ 9 2 roll ] def
  PFa 0 get PFa 2 get 2 div add PFa 1 get PFa 3 get 2 div add translate
  PFa 2 get -2 div PFa 3 get -2 div PFa 2 get PFa 3 get Rec
  TransparentPatterns {} {gsave 1 setgray fill grestore} ifelse
  clip
  currentlinewidth 0.5 mul setlinewidth
  /PFs PFa 2 get dup mul PFa 3 get dup mul add sqrt def
  0 0 M PFa 5 get rotate PFs -2 div dup translate
  0 1 PFs PFa 4 get div 1 add floor cvi
	{PFa 4 get mul 0 M 0 PFs V} for
  0 PFa 6 get ne {
	0 1 PFs PFa 4 get div 1 add floor cvi
	{PFa 4 get mul 0 2 1 roll M PFs 0 V} for
 } if
  stroke grestore} def
%
/languagelevel where
 {pop languagelevel} {1} ifelse
dup 2 lt
	{/InterpretLevel1 true def
	 /InterpretLevel3 false def}
	{/InterpretLevel1 Level1 def
	 2 gt
	    {/InterpretLevel3 Level3 def}
	    {/InterpretLevel3 false def}
	 ifelse }
 ifelse
%
% PostScript level 2 pattern fill definitions
%
/Level2PatternFill {
/Tile8x8 {/PaintType 2 /PatternType 1 /TilingType 1 /BBox [0 0 8 8] /XStep 8 /YStep 8}
	bind def
/KeepColor {currentrgbcolor [/Pattern /DeviceRGB] setcolorspace} bind def
<< Tile8x8
 /PaintProc {0.5 setlinewidth pop 0 0 M 8 8 L 0 8 M 8 0 L stroke} 
>> matrix makepattern
/Pat1 exch def
<< Tile8x8
 /PaintProc {0.5 setlinewidth pop 0 0 M 8 8 L 0 8 M 8 0 L stroke
	0 4 M 4 8 L 8 4 L 4 0 L 0 4 L stroke}
>> matrix makepattern
/Pat2 exch def
<< Tile8x8
 /PaintProc {0.5 setlinewidth pop 0 0 M 0 8 L
	8 8 L 8 0 L 0 0 L fill}
>> matrix makepattern
/Pat3 exch def
<< Tile8x8
 /PaintProc {0.5 setlinewidth pop -4 8 M 8 -4 L
	0 12 M 12 0 L stroke}
>> matrix makepattern
/Pat4 exch def
<< Tile8x8
 /PaintProc {0.5 setlinewidth pop -4 0 M 8 12 L
	0 -4 M 12 8 L stroke}
>> matrix makepattern
/Pat5 exch def
<< Tile8x8
 /PaintProc {0.5 setlinewidth pop -2 8 M 4 -4 L
	0 12 M 8 -4 L 4 12 M 10 0 L stroke}
>> matrix makepattern
/Pat6 exch def
<< Tile8x8
 /PaintProc {0.5 setlinewidth pop -2 0 M 4 12 L
	0 -4 M 8 12 L 4 -4 M 10 8 L stroke}
>> matrix makepattern
/Pat7 exch def
<< Tile8x8
 /PaintProc {0.5 setlinewidth pop 8 -2 M -4 4 L
	12 0 M -4 8 L 12 4 M 0 10 L stroke}
>> matrix makepattern
/Pat8 exch def
<< Tile8x8
 /PaintProc {0.5 setlinewidth pop 0 -2 M 12 4 L
	-4 0 M 12 8 L -4 4 M 8 10 L stroke}
>> matrix makepattern
/Pat9 exch def
/Pattern1 {PatternBgnd KeepColor Pat1 setpattern} bind def
/Pattern2 {PatternBgnd KeepColor Pat2 setpattern} bind def
/Pattern3 {PatternBgnd KeepColor Pat3 setpattern} bind def
/Pattern4 {PatternBgnd KeepColor Landscape {Pat5} {Pat4} ifelse setpattern} bind def
/Pattern5 {PatternBgnd KeepColor Landscape {Pat4} {Pat5} ifelse setpattern} bind def
/Pattern6 {PatternBgnd KeepColor Landscape {Pat9} {Pat6} ifelse setpattern} bind def
/Pattern7 {PatternBgnd KeepColor Landscape {Pat8} {Pat7} ifelse setpattern} bind def
} def
%
%
%End of PostScript Level 2 code
%
/PatternBgnd {
  TransparentPatterns {} {gsave 1 setgray fill grestore} ifelse
} def
%
% Substitute for Level 2 pattern fill codes with
% grayscale if Level 2 support is not selected.
%
/Level1PatternFill {
/Pattern1 {0.250 Density} bind def
/Pattern2 {0.500 Density} bind def
/Pattern3 {0.750 Density} bind def
/Pattern4 {0.125 Density} bind def
/Pattern5 {0.375 Density} bind def
/Pattern6 {0.625 Density} bind def
/Pattern7 {0.875 Density} bind def
} def
%
% Now test for support of Level 2 code
%
Level1 {Level1PatternFill} {Level2PatternFill} ifelse
%
/Symbol-Oblique /Symbol findfont [1 0 .167 1 0 0] makefont
dup length dict begin {1 index /FID eq {pop pop} {def} ifelse} forall
currentdict end definefont pop
%
/Metrics {ExtendTextBox Gswidth} def
/Lwidth {currentpoint stroke M 0 vshift R Metrics} def
/Rwidth {currentpoint stroke M dup stringwidth pop neg vshift R Metrics} def
/Cwidth {currentpoint stroke M dup stringwidth pop -2 div vshift R Metrics} def
/GLwidth {currentpoint stroke M 0 vshift R {ExtendTextBox} forall} def
/GRwidth {currentpoint stroke M dup Gwidth vshift R {ExtendTextBox} forall} def
/GCwidth {currentpoint stroke M dup Gwidth 2 div vshift R {ExtendTextBox} forall} def
/GLwidth2 {0 Gwidth AddGlyphWidth} def
/GRwidth2 {Gwidth -1 mul 0 AddGlyphWidth} def
/GCwidth2 {Gwidth 2 div dup -1 mul AddGlyphWidth} def
/AddGlyphWidth { dup TBx2 gt {userdict /TBx2 3 -1 roll put} {pop} ifelse
                 dup TBx1 lt {userdict /TBx1 3 -1 roll put} {pop} ifelse } def
/MFshow {
   { dup 5 get 3 ge
     { 5 get 3 eq {gsave} {grestore} ifelse }
     {dup dup 0 get findfont exch 1 get scalefont setfont
     [ currentpoint ] exch dup 2 get 0 exch R dup 5 get 2 ne {dup dup 6
     get exch 4 get {textshow} {Metrics pop 0 R} ifelse }if dup 5 get 0 eq
     {dup 3 get {2 get neg 0 exch R pop} {pop aload pop M} ifelse} {dup 5
     get 1 eq {dup 2 get exch dup 3 get exch 6 get Gswidth pop -2 div
     dup 0 R} {dup 6 get Gswidth pop -2 div 0 R 6 get
     textshow 2 index {aload pop M neg 3 -1 roll neg R pop pop} {pop pop pop
     pop aload pop M} ifelse }ifelse }ifelse }
     ifelse }
   forall} def
/Gswidth {dup type /stringtype eq {stringwidth} {pop (n) stringwidth} ifelse} def
/MFwidth {0 exch { dup 5 get 3 ge { 5 get 3 eq { 0 } { pop } ifelse }
 {dup 3 get{dup dup 0 get findfont exch 1 get scalefont setfont
     6 get Gswidth pop add} {pop} ifelse} ifelse} forall} def
/MLshow { currentpoint stroke M
  0 exch R
  Blacktext {gsave 0 setgray MFshow grestore} {MFshow} ifelse } bind def
/MRshow { currentpoint stroke M
  exch dup MFwidth neg 3 -1 roll R
  Blacktext {gsave 0 setgray MFshow grestore} {MFshow} ifelse } bind def
/MCshow { currentpoint stroke M
  exch dup MFwidth -2 div 3 -1 roll R
  Blacktext {gsave 0 setgray MFshow grestore} {MFshow} ifelse } bind def
/XYsave    { [( ) 1 2 true false 3 ()] } bind def
/XYrestore { [( ) 1 2 true false 4 ()] } bind def
Level1 SuppressPDFMark or 
{} {
/SDict 10 dict def
systemdict /pdfmark known not {
  userdict /pdfmark systemdict /cleartomark get put
} if
SDict begin [
  /Title (timing.ps)
  /Subject (gnuplot plot)
  /Creator (gnuplot 5.2 patchlevel 6)
%  /Producer (gnuplot)
%  /Keywords ()
  /CreationDate (Mon Mar 15 20:22:08 2021)
  /DOCINFO pdfmark
end
} ifelse
%
% Support for boxed text - Ethan A Merritt Sep 2016
%
/InitTextBox { userdict /TBy2 3 -1 roll put userdict /TBx2 3 -1 roll put
           userdict /TBy1 3 -1 roll put userdict /TBx1 3 -1 roll put
	   /Boxing true def } def
/ExtendTextBox { dup type /stringtype eq
    { Boxing { gsave dup false charpath pathbbox
      dup TBy2 gt {userdict /TBy2 3 -1 roll put} {pop} ifelse
      dup TBx2 gt {userdict /TBx2 3 -1 roll put} {pop} ifelse
      dup TBy1 lt {userdict /TBy1 3 -1 roll put} {pop} ifelse
      dup TBx1 lt {userdict /TBx1 3 -1 roll put} {pop} ifelse
      grestore } if }
    {} ifelse} def
/PopTextBox { newpath TBx1 TBxmargin sub TBy1 TBymargin sub M
               TBx1 TBxmargin sub TBy2 TBymargin add L
	       TBx2 TBxmargin add TBy2 TBymargin add L
	       TBx2 TBxmargin add TBy1 TBymargin sub L closepath } def
/DrawTextBox { PopTextBox stroke /Boxing false def} def
/FillTextBox { gsave PopTextBox fill grestore /Boxing false def} def
0 0 0 0 InitTextBox
/TBxmargin 20 def
/TBymargin 20 def
/Boxing false def
/textshow { ExtendTextBox Gshow } def
%
end
%%EndProlog
%%Page: 1 1
gnudict begin
gsave
doclip
50 50 translate
0.100 0.100 scale
90 rotate
0 -5040 translate
0 setgray
newpath
(Helvetica) findfont 140 scalefont setfont
BackgroundColor 0 lt 3 1 roll 0 lt exch 0 lt or or not {gsave BackgroundColor C clippath fill grestore} if
1.000 UL
LTb
LCb setrgbcolor
0.500 UL
LTa
LCa setrgbcolor
938 448 M
6009 0 V
stroke
1.000 UL
LTb
LCb setrgbcolor
938 448 M
63 0 V
5946 0 R
-63 0 V
stroke
854 448 M
[ [(Helvetica) 140.0 0.0 true true 0 ( 100)]
] -46.7 MRshow
/Helvetica findfont 140 scalefont setfont
/vshift -46 def
1.000 UL
LTb
LCb setrgbcolor
938 867 M
31 0 V
5978 0 R
-31 0 V
938 1111 M
31 0 V
5978 0 R
-31 0 V
938 1285 M
31 0 V
5978 0 R
-31 0 V
938 1420 M
31 0 V
5978 0 R
-31 0 V
938 1530 M
31 0 V
5978 0 R
-31 0 V
938 1623 M
31 0 V
5978 0 R
-31 0 V
938 1704 M
31 0 V
5978 0 R
-31 0 V
938 1775 M
31 0 V
5978 0 R
-31 0 V
stroke
0.500 UL
LTa
LCa setrgbcolor
938 1838 M
6009 0 V
stroke
1.000 UL
LTb
LCb setrgbcolor
938 1838 M
63 0 V
5946 0 R
-63 0 V
stroke
854 1838 M
[ [(Helvetica) 140.0 0.0 true true 0 ( 1000)]
] -46.7 MRshow
/Helvetica findfont 140 scalefont setfont
1.000 UL
LTb
LCb setrgbcolor
938 2257 M
31 0 V
5978 0 R
-31 0 V
938 2502 M
31 0 V
5978 0 R
-31 0 V
938 2675 M
31 0 V
5978 0 R
-31 0 V
938 2810 M
31 0 V
5978 0 R
-31 0 V
938 2920 M
31 0 V
5978 0 R
-31 0 V
938 3013 M
31 0 V
5978 0 R
-31 0 V
938 3094 M
31 0 V
5978 0 R
-31 0 V
938 3165 M
31 0 V
5978 0 R
-31 0 V
stroke
0.500 UL
LTa
LCa setrgbcolor
938 3229 M
6009 0 V
stroke
1.000 UL
LTb
LCb setrgbcolor
938 3229 M
63 0 V
5946 0 R
-63 0 V
stroke
854 3229 M
[ [(Helvetica) 140.0 0.0 true true 0 ( 10000)]
] -46.7 MRshow
/Helvetica findfont 140 scalefont setfont
1.000 UL
LTb
LCb setrgbcolor
938 3647 M
31 0 V
5978 0 R
-31 0 V
938 3892 M
31 0 V
5978 0 R
-31 0 V
938 4066 M
31 0 V
5978 0 R
-31 0 V
938 4200 M
31 0 V
5978 0 R
-31 0 V
938 4311 M
31 0 V
5978 0 R
-31 0 V
938 4404 M
31 0 V
5978 0 R
-31 0 V
938 4484 M
31 0 V
5978 0 R
-31 0 V
938 4555 M
31 0 V
5978 0 R
-31 0 V
stroke
0.500 UL
LTa
LCa setrgbcolor
938 4619 M
6009 0 V
stroke
1.000 UL
LTb
LCb setrgbcolor
938 4619 M
63 0 V
5946 0 R
-63 0 V
stroke
854 4619 M
[ [(Helvetica) 140.0 0.0 true true 0 ( 100000)]
] -46.7 MRshow
/Helvetica findfont 140 scalefont setfont
1.000 UL
LTb
LCb setrgbcolor
0.500 UL
LTa
LCa setrgbcolor
938 448 M
0 4171 V
stroke
1.000 UL
LTb
LCb setrgbcolor
938 448 M
0 63 V
0 4108 R
0 -63 V
stroke
938 308 M
[ [(Helvetica) 140.0 0.0 true true 0 ( 0)]
] -46.7 MCshow
/Helvetica findfont 140 scalefont setfont
1.000 UL
LTb
LCb setrgbcolor
0.500 UL
LTa
LCa setrgbcolor
1484 448 M
0 4171 V
stroke
1.000 UL
LTb
LCb setrgbcolor
1484 448 M
0 63 V
0 4108 R
0 -63 V
stroke
1484 308 M
[ [(Helvetica) 140.0 0.0 true true 0 ( 100)]
] -46.7 MCshow
/Helvetica findfont 140 scalefont setfont
1.000 UL
LTb
LCb setrgbcolor
0.500 UL
LTa
LCa setrgbcolor
2031 448 M
0 4171 V
stroke
1.000 UL
LTb
LCb setrgbcolor
2031 448 M
0 63 V
0 4108 R
0 -63 V
stroke
2031 308 M
[ [(Helvetica) 140.0 0.0 true true 0 ( 200)]
] -46.7 MCshow
/Helvetica findfont 140 scalefont setfont
1.000 UL
LTb
LCb setrgbcolor
0.500 UL
LTa
LCa setrgbcolor
2577 448 M
0 4171 V
stroke
1.000 UL
LTb
LCb setrgbcolor
2577 448 M
0 63 V
0 4108 R
0 -63 V
stroke
2577 308 M
[ [(Helvetica) 140.0 0.0 true true 0 ( 300)]
] -46.7 MCshow
/Helvetica findfont 140 scalefont setfont
1.000 UL
LTb
LCb setrgbcolor
0.500 UL
LTa
LCa setrgbcolor
3123 448 M
0 4171 V
stroke
1.000 UL
LTb
LCb setrgbcolor
3123 448 M
0 63 V
0 4108 R
0 -63 V
stroke
3123 308 M
[ [(Helvetica) 140.0 0.0 true true 0 ( 400)]
] -46.7 MCshow
/Helvetica findfont 140 scalefont setfont
1.000 UL
LTb
LCb setrgbcolor
0.500 UL
LTa
LCa setrgbcolor
3669 448 M
0 4171 V
stroke
1.000 UL
LTb
LCb setrgbcolor
3669 448 M
0 63 V
0 4108 R
0 -63 V
stroke
3669 308 M
[ [(Helvetica) 140.0 0.0 true true 0 ( 500)]
] -46.7 MCshow
/Helvetica findfont 140 scalefont setfont
1.000 UL
LTb
LCb setrgbcolor
0.500 UL
LTa
LCa setrgbcolor
4216 448 M
0 4171 V
stroke
1.000 UL
LTb
LCb setrgbcolor
4216 448 M
0 63 V
0 4108 R
0 -63 V
stroke
4216 308 M
[ [(Helvetica) 140.0 0.0 true true 0 ( 600)]
] -46.7 MCshow
/Helvetica findfont 140 scalefont setfont
1.000 UL
LTb
LCb setrgbcolor
0.500 UL
LTa
LCa setrgbcolor
4762 448 M
0 4171 V
stroke
1.000 UL
LTb
LCb setrgbcolor
4762 448 M
0 63 V
0 4108 R
0 -63 V
stroke
4762 308 M
[ [(Helvetica) 140.0 0.0 true true 0 ( 700)]
] -46.7 MCshow
/Helvetica findfont 140 scalefont setfont
1.000 UL
LTb
LCb setrgbcolor
0.500 UL
LTa
LCa setrgbcolor
5308 448 M
0 63 V
0 700 R
0 3408 V
stroke
1.000 UL
LTb
LCb setrgbcolor
5308 448 M
0 63 V
0 4108 R
0 -63 V
stroke
5308 308 M
[ [(Helvetica) 140.0 0.0 true true 0 ( 800)]
] -46.7 MCshow
/Helvetica findfont 140 scalefont setfont
1.000 UL
LTb
LCb setrgbcolor
0.500 UL
LTa
LCa setrgbcolor
5854 448 M
0 63 V
0 700 R
0 3408 V
stroke
1.000 UL
LTb
LCb setrgbcolor
5854 448 M
0 63 V
0 4108 R
0 -63 V
stroke
5854 308 M
[ [(Helvetica) 140.0 0.0 true true 0 ( 900)]
] -46.7 MCshow
/Helvetica findfont 140 scalefont setfont
1.000 UL
LTb
LCb setrgbcolor
0.500 UL
LTa
LCa setrgbcolor
6401 448 M
0 63 V
0 700 R
0 3408 V
stroke
1.000 UL
LTb
LCb setrgbcolor
6401 448 M
0 63 V
0 4108 R
0 -63 V
stroke
6401 308 M
[ [(Helvetica) 140.0 0.0 true true 0 ( 1000)]
] -46.7 MCshow
/Helvetica findfont 140 scalefont setfont
1.000 UL
LTb
LCb setrgbcolor
0.500 UL
LTa
LCa setrgbcolor
6947 448 M
0 4171 V
stroke
1.000 UL
LTb
LCb setrgbcolor
6947 448 M
0 63 V
0 4108 R
0 -63 V
stroke
6947 308 M
[ [(Helvetica) 140.0 0.0 true true 0 ( 1100)]
] -46.7 MCshow
/Helvetica findfont 140 scalefont setfont
1.000 UL
LTb
LCb setrgbcolor
1.000 UL
LTB
LCb setrgbcolor
938 4619 N
938 448 L
6009 0 V
0 4171 V
-6009 0 V
Z stroke
1.000 UP
1.000 UL
LTb
LCb setrgbcolor
LCb setrgbcolor
126 2533 M
currentpoint gsave translate -270 rotate 0 0 moveto
[ [(Helvetica) 140.0 0.0 true true 0 (Performance \(GFlop/s\))]
] -46.7 MCshow
grestore
/Helvetica findfont 140 scalefont setfont
LTb
LCb setrgbcolor
3942 98 M
[ [(Helvetica) 140.0 0.0 true true 0 (Matrix size \(N\))]
] -46.7 MCshow
/Helvetica findfont 140 scalefont setfont
LTb
LCb setrgbcolor
3942 4829 M
[ [(Helvetica) 140.0 0.0 true true 0 (NxN matrix-matrix-multiplication on 2-Core Intel\(R\) Core\(TM\) i7-5600U )]
XYsave
[(Helvetica) 140.0 0.0 true true 0 ( )]
XYrestore
[(Helvetica) 140.0 0.0 true true 0 (2.60GHz)]
] -46.7 MCshow
/Helvetica findfont 140 scalefont setfont
% Begin plot #1
1.000 UP
1.000 UL
LTb
0.58 0.00 0.83 C
LCb setrgbcolor
6296 1141 M
[ [(Helvetica) 140.0 0.0 true true 0 (Naive dgemm)]
] -46.7 MRshow
/Helvetica findfont 140 scalefont setfont
1.000 UP
1.000 UL
LTb
0.58 0.00 0.83 C
6380 1141 M
399 0 V
1107 2391 M
6 -27 V
5 -27 V
164 -48 V
6 4 V
5 -8 V
164 -76 V
5 -3 V
6 0 V
164 -60 V
5 -16 V
6 16 V
164 -37 V
5 -8 V
5 9 V
164 -33 V
6 -9 V
5 9 V
164 -14 V
6 -9 V
5 8 V
164 -18 V
5 -211 V
6 207 V
164 -7 V
5 -1 V
6 -3 V
164 -2 V
5 -4 V
6 4 V
163 -4 V
6 0 V
5 -1 V
164 -4 V
6 -120 V
5 120 V
164 -4 V
5 -1 V
6 2 V
164 -3 V
5 -5 V
6 4 V
164 -2 V
5 -2 V
6 2 V
163 -2 V
6 -165 V
5 167 V
164 -2 V
6 0 V
5 -1 V
164 -4 V
6 -25 V
5 26 V
164 -2 V
5 1 V
6 0 V
164 -4 V
5 -127 V
6 126 V
163 -4 V
6 1 V
5 -1 V
164 -14 V
6 -106 V
5 102 V
164 -18 V
6 -5 V
5 3 V
164 -6 V
5 -141 V
6 140 V
164 -2 V
5 -15 V
6 13 V
164 1 V
5 -146 V
5 145 V
164 -1 V
6 -22 V
5 21 V
164 0 V
6 -157 V
5 155 V
164 1 V
5 -24 V
6 21 V
164 -3 V
5 -156 V
6 157 V
164 -6 V
5 -25 V
5 -27 V
164 55 V
6 -882 V
5 884 V
1107 2391 Pls
1113 2364 Pls
1118 2337 Pls
1282 2289 Pls
1288 2293 Pls
1293 2285 Pls
1457 2209 Pls
1462 2206 Pls
1468 2206 Pls
1632 2146 Pls
1637 2130 Pls
1643 2146 Pls
1807 2109 Pls
1812 2101 Pls
1817 2110 Pls
1981 2077 Pls
1987 2068 Pls
1992 2077 Pls
2156 2063 Pls
2162 2054 Pls
2167 2062 Pls
2331 2044 Pls
2336 1833 Pls
2342 2040 Pls
2506 2033 Pls
2511 2032 Pls
2517 2029 Pls
2681 2027 Pls
2686 2023 Pls
2692 2027 Pls
2855 2023 Pls
2861 2023 Pls
2866 2022 Pls
3030 2018 Pls
3036 1898 Pls
3041 2018 Pls
3205 2014 Pls
3210 2013 Pls
3216 2015 Pls
3380 2012 Pls
3385 2007 Pls
3391 2011 Pls
3555 2009 Pls
3560 2007 Pls
3566 2009 Pls
3729 2007 Pls
3735 1842 Pls
3740 2009 Pls
3904 2007 Pls
3910 2007 Pls
3915 2006 Pls
4079 2002 Pls
4085 1977 Pls
4090 2003 Pls
4254 2001 Pls
4259 2002 Pls
4265 2002 Pls
4429 1998 Pls
4434 1871 Pls
4440 1997 Pls
4603 1993 Pls
4609 1994 Pls
4614 1993 Pls
4778 1979 Pls
4784 1873 Pls
4789 1975 Pls
4953 1957 Pls
4959 1952 Pls
4964 1955 Pls
5128 1949 Pls
5133 1808 Pls
5139 1948 Pls
5303 1946 Pls
5308 1931 Pls
5314 1944 Pls
5478 1945 Pls
5483 1799 Pls
5488 1944 Pls
5652 1943 Pls
5658 1921 Pls
5663 1942 Pls
5827 1942 Pls
5833 1785 Pls
5838 1940 Pls
6002 1941 Pls
6007 1917 Pls
6013 1938 Pls
6177 1935 Pls
6182 1779 Pls
6188 1936 Pls
6352 1930 Pls
6357 1905 Pls
6362 1878 Pls
6526 1933 Pls
6532 1051 Pls
6537 1935 Pls
6579 1141 Pls
% End plot #1
% Begin plot #2
1.000 UP
1.000 UL
LTb
0.00 0.62 0.45 C
LCb setrgbcolor
6296 1001 M
[ [(Helvetica) 140.0 0.0 true true 0 (Reordered dgemm)]
] -46.7 MRshow
/Helvetica findfont 140 scalefont setfont
1.000 UP
1.000 UL
LTb
0.00 0.62 0.45 C
6380 1001 M
399 0 V
1107 2603 M
6 5 V
5 13 V
164 -41 V
6 -6 V
5 10 V
164 -24 V
5 -4 V
6 13 V
164 0 V
5 -45 V
6 46 V
164 -1 V
5 -13 V
5 13 V
164 -55 V
6 -22 V
5 15 V
164 -10 V
6 -3 V
5 2 V
164 1 V
5 -66 V
6 65 V
164 -7 V
5 0 V
6 -2 V
164 0 V
5 -6 V
6 9 V
163 -2 V
6 5 V
5 -1 V
164 1 V
6 -28 V
5 28 V
164 1 V
5 2 V
6 -2 V
164 0 V
5 -7 V
6 9 V
164 -2 V
5 4 V
6 -1 V
163 0 V
6 -157 V
5 158 V
164 1 V
6 0 V
5 0 V
164 -1 V
6 -9 V
5 9 V
164 -3 V
5 5 V
6 0 V
164 -3 V
5 -60 V
6 59 V
163 -9 V
6 8 V
5 -4 V
164 -56 V
6 -19 V
5 11 V
164 -63 V
6 3 V
5 -5 V
164 -30 V
5 -42 V
6 40 V
164 -22 V
5 4 V
6 -5 V
164 -19 V
5 -1 V
5 0 V
164 -18 V
6 6 V
5 -5 V
164 -14 V
6 -9 V
5 10 V
164 -7 V
5 6 V
6 -6 V
164 -6 V
5 4 V
6 -8 V
164 -3 V
5 8 V
5 -6 V
164 3 V
6 -46 V
5 46 V
1107 2603 Crs
1113 2608 Crs
1118 2621 Crs
1282 2580 Crs
1288 2574 Crs
1293 2584 Crs
1457 2560 Crs
1462 2556 Crs
1468 2569 Crs
1632 2569 Crs
1637 2524 Crs
1643 2570 Crs
1807 2569 Crs
1812 2556 Crs
1817 2569 Crs
1981 2514 Crs
1987 2492 Crs
1992 2507 Crs
2156 2497 Crs
2162 2494 Crs
2167 2496 Crs
2331 2497 Crs
2336 2431 Crs
2342 2496 Crs
2506 2489 Crs
2511 2489 Crs
2517 2487 Crs
2681 2487 Crs
2686 2481 Crs
2692 2490 Crs
2855 2488 Crs
2861 2493 Crs
2866 2492 Crs
3030 2493 Crs
3036 2465 Crs
3041 2493 Crs
3205 2494 Crs
3210 2496 Crs
3216 2494 Crs
3380 2494 Crs
3385 2487 Crs
3391 2496 Crs
3555 2494 Crs
3560 2498 Crs
3566 2497 Crs
3729 2497 Crs
3735 2340 Crs
3740 2498 Crs
3904 2499 Crs
3910 2499 Crs
3915 2499 Crs
4079 2498 Crs
4085 2489 Crs
4090 2498 Crs
4254 2495 Crs
4259 2500 Crs
4265 2500 Crs
4429 2497 Crs
4434 2437 Crs
4440 2496 Crs
4603 2487 Crs
4609 2495 Crs
4614 2491 Crs
4778 2435 Crs
4784 2416 Crs
4789 2427 Crs
4953 2364 Crs
4959 2367 Crs
4964 2362 Crs
5128 2332 Crs
5133 2290 Crs
5139 2330 Crs
5303 2308 Crs
5308 2312 Crs
5314 2307 Crs
5478 2288 Crs
5483 2287 Crs
5488 2287 Crs
5652 2269 Crs
5658 2275 Crs
5663 2270 Crs
5827 2256 Crs
5833 2247 Crs
5838 2257 Crs
6002 2250 Crs
6007 2256 Crs
6013 2250 Crs
6177 2244 Crs
6182 2248 Crs
6188 2240 Crs
6352 2237 Crs
6357 2245 Crs
6362 2239 Crs
6526 2242 Crs
6532 2196 Crs
6537 2242 Crs
6579 1001 Crs
% End plot #2
% Begin plot #3
1.000 UP
1.000 UL
LTb
0.34 0.71 0.91 C
LCb setrgbcolor
6296 861 M
[ [(Helvetica) 140.0 0.0 true true 0 (Blocked dgemm)]
] -46.7 MRshow
/Helvetica findfont 140 scalefont setfont
1.000 UP
1.000 UL
LTb
0.34 0.71 0.91 C
6380 861 M
399 0 V
1107 2671 M
6 1 V
5 -84 V
164 84 V
6 -7 V
5 -38 V
164 47 V
5 -12 V
6 -16 V
164 22 V
5 -39 V
6 15 V
164 28 V
5 -4 V
5 -13 V
164 18 V
6 -13 V
5 -2 V
164 14 V
6 -7 V
5 -5 V
164 -33 V
5 -59 V
6 50 V
164 53 V
5 -4 V
6 -5 V
164 10 V
5 -14 V
6 4 V
163 10 V
6 -5 V
5 -3 V
164 -15 V
6 -41 V
5 33 V
164 29 V
5 -5 V
6 -2 V
164 6 V
5 -15 V
6 9 V
164 6 V
5 -5 V
6 -1 V
163 -56 V
6 -77 V
5 78 V
164 58 V
6 -5 V
5 2 V
164 5 V
6 -13 V
5 6 V
164 4 V
5 -4 V
6 -1 V
164 -9 V
5 -42 V
6 36 V
163 20 V
6 -7 V
5 2 V
164 6 V
6 -15 V
5 11 V
164 5 V
6 -5 V
5 1 V
164 -33 V
5 -61 V
6 56 V
164 42 V
5 -5 V
6 1 V
164 3 V
5 -15 V
5 12 V
164 3 V
6 -4 V
5 2 V
164 0 V
6 -45 V
5 41 V
164 7 V
5 -5 V
6 2 V
164 2 V
5 -11 V
6 7 V
164 4 V
5 -8 V
5 4 V
164 -55 V
6 -113 V
5 111 V
1107 2671 Star
1113 2672 Star
1118 2588 Star
1282 2672 Star
1288 2665 Star
1293 2627 Star
1457 2674 Star
1462 2662 Star
1468 2646 Star
1632 2668 Star
1637 2629 Star
1643 2644 Star
1807 2672 Star
1812 2668 Star
1817 2655 Star
1981 2673 Star
1987 2660 Star
1992 2658 Star
2156 2672 Star
2162 2665 Star
2167 2660 Star
2331 2627 Star
2336 2568 Star
2342 2618 Star
2506 2671 Star
2511 2667 Star
2517 2662 Star
2681 2672 Star
2686 2658 Star
2692 2662 Star
2855 2672 Star
2861 2667 Star
2866 2664 Star
3030 2649 Star
3036 2608 Star
3041 2641 Star
3205 2670 Star
3210 2665 Star
3216 2663 Star
3380 2669 Star
3385 2654 Star
3391 2663 Star
3555 2669 Star
3560 2664 Star
3566 2663 Star
3729 2607 Star
3735 2530 Star
3740 2608 Star
3904 2666 Star
3910 2661 Star
3915 2663 Star
4079 2668 Star
4085 2655 Star
4090 2661 Star
4254 2665 Star
4259 2661 Star
4265 2660 Star
4429 2651 Star
4434 2609 Star
4440 2645 Star
4603 2665 Star
4609 2658 Star
4614 2660 Star
4778 2666 Star
4784 2651 Star
4789 2662 Star
4953 2667 Star
4959 2662 Star
4964 2663 Star
5128 2630 Star
5133 2569 Star
5139 2625 Star
5303 2667 Star
5308 2662 Star
5314 2663 Star
5478 2666 Star
5483 2651 Star
5488 2663 Star
5652 2666 Star
5658 2662 Star
5663 2664 Star
5827 2664 Star
5833 2619 Star
5838 2660 Star
6002 2667 Star
6007 2662 Star
6013 2664 Star
6177 2666 Star
6182 2655 Star
6188 2662 Star
6352 2666 Star
6357 2658 Star
6362 2662 Star
6526 2607 Star
6532 2494 Star
6537 2605 Star
6579 861 Star
% End plot #3
% Begin plot #4
1.000 UP
1.000 UL
LTb
0.90 0.62 0.00 C
LCb setrgbcolor
6296 721 M
[ [(Helvetica) 140.0 0.0 true true 0 (Intrinsic dgemm)]
] -46.7 MRshow
/Helvetica findfont 140 scalefont setfont
1.000 UP
1.000 UL
LTb
0.90 0.62 0.00 C
6380 721 M
399 0 V
1107 2927 M
6 130 V
5 -247 V
164 151 V
6 97 V
5 -187 V
164 67 V
5 120 V
6 -145 V
164 66 V
5 59 V
6 -142 V
164 53 V
5 103 V
5 -122 V
164 21 V
6 102 V
5 -121 V
164 21 V
6 96 V
5 -108 V
164 17 V
5 17 V
6 -73 V
164 51 V
5 99 V
6 -106 V
164 10 V
5 88 V
6 -99 V
163 8 V
6 97 V
5 -104 V
164 -5 V
6 62 V
5 -71 V
164 22 V
5 90 V
6 -119 V
164 28 V
5 86 V
6 -96 V
164 12 V
5 90 V
6 -97 V
163 -26 V
6 -10 V
5 5 V
164 41 V
6 90 V
5 -97 V
164 4 V
6 87 V
5 -93 V
164 3 V
5 89 V
6 -94 V
164 -5 V
5 66 V
6 -72 V
163 15 V
6 85 V
5 -91 V
164 7 V
6 85 V
5 -88 V
164 4 V
6 88 V
5 -92 V
164 -5 V
5 31 V
6 -41 V
164 19 V
5 88 V
6 -91 V
164 2 V
5 84 V
5 -95 V
164 10 V
6 90 V
5 -92 V
164 5 V
6 71 V
5 -81 V
164 9 V
5 89 V
6 -91 V
164 3 V
5 87 V
6 -92 V
164 1 V
5 87 V
5 -91 V
164 -29 V
6 -67 V
5 64 V
1107 2927 Box
1113 3057 Box
1118 2810 Box
1282 2961 Box
1288 3058 Box
1293 2871 Box
1457 2938 Box
1462 3058 Box
1468 2913 Box
1632 2979 Box
1637 3038 Box
1643 2896 Box
1807 2949 Box
1812 3052 Box
1817 2930 Box
1981 2951 Box
1987 3053 Box
1992 2932 Box
2156 2953 Box
2162 3049 Box
2167 2941 Box
2331 2958 Box
2336 2975 Box
2342 2902 Box
2506 2953 Box
2511 3052 Box
2517 2946 Box
2681 2956 Box
2686 3044 Box
2692 2945 Box
2855 2953 Box
2861 3050 Box
2866 2946 Box
3030 2941 Box
3036 3003 Box
3041 2932 Box
3205 2954 Box
3210 3044 Box
3216 2925 Box
3380 2953 Box
3385 3039 Box
3391 2943 Box
3555 2955 Box
3560 3045 Box
3566 2948 Box
3729 2922 Box
3735 2912 Box
3740 2917 Box
3904 2958 Box
3910 3048 Box
3915 2951 Box
4079 2955 Box
4085 3042 Box
4090 2949 Box
4254 2952 Box
4259 3041 Box
4265 2947 Box
4429 2942 Box
4434 3008 Box
4440 2936 Box
4603 2951 Box
4609 3036 Box
4614 2945 Box
4778 2952 Box
4784 3037 Box
4789 2949 Box
4953 2953 Box
4959 3041 Box
4964 2949 Box
5128 2944 Box
5133 2975 Box
5139 2934 Box
5303 2953 Box
5308 3041 Box
5314 2950 Box
5478 2952 Box
5483 3036 Box
5488 2941 Box
5652 2951 Box
5658 3041 Box
5663 2949 Box
5827 2954 Box
5833 3025 Box
5838 2944 Box
6002 2953 Box
6007 3042 Box
6013 2951 Box
6177 2954 Box
6182 3041 Box
6188 2949 Box
6352 2950 Box
6357 3037 Box
6362 2946 Box
6526 2917 Box
6532 2850 Box
6537 2914 Box
6579 721 Box
% End plot #4
% Begin plot #5
1.000 UP
1.000 UL
LTb
0.94 0.89 0.26 C
LCb setrgbcolor
6296 581 M
[ [(Helvetica) 140.0 0.0 true true 0 (MKL blas dgemm)]
] -46.7 MRshow
/Helvetica findfont 140 scalefont setfont
1.000 UP
1.000 UL
LTb
0.94 0.89 0.26 C
6380 581 M
399 0 V
1107 3936 M
6 74 V
5 -94 V
164 147 V
6 1 V
5 -25 V
164 -50 V
5 70 V
6 -18 V
164 -30 V
5 51 V
6 -22 V
164 -3 V
5 46 V
5 -19 V
164 -7 V
6 60 V
5 -38 V
164 -9 V
6 43 V
5 -20 V
164 -14 V
5 26 V
6 -24 V
164 13 V
5 40 V
6 -22 V
164 -19 V
5 38 V
6 -17 V
163 -10 V
6 31 V
5 -20 V
164 -10 V
6 29 V
5 -34 V
164 -5 V
5 32 V
6 -19 V
164 -6 V
5 23 V
6 -17 V
164 -10 V
5 25 V
6 -14 V
163 -38 V
6 43 V
5 -31 V
164 22 V
6 22 V
5 -15 V
164 -5 V
6 25 V
5 -33 V
164 0 V
5 21 V
6 -13 V
164 -1 V
5 15 V
6 -13 V
163 0 V
6 21 V
5 -15 V
164 -5 V
6 24 V
5 -15 V
164 -3 V
6 19 V
5 -15 V
164 -9 V
5 22 V
6 -36 V
164 10 V
5 19 V
6 -13 V
164 2 V
5 17 V
5 -14 V
164 -6 V
6 21 V
5 -13 V
164 -4 V
6 18 V
5 -13 V
164 -3 V
5 17 V
6 -11 V
164 -2 V
5 20 V
6 -34 V
164 2 V
5 18 V
5 -50 V
164 -21 V
6 31 V
5 -26 V
1107 3936 BoxF
1113 4010 BoxF
1118 3916 BoxF
1282 4063 BoxF
1288 4064 BoxF
1293 4039 BoxF
1457 3989 BoxF
1462 4059 BoxF
1468 4041 BoxF
1632 4011 BoxF
1637 4062 BoxF
1643 4040 BoxF
1807 4037 BoxF
1812 4083 BoxF
1817 4064 BoxF
1981 4057 BoxF
1987 4117 BoxF
1992 4079 BoxF
2156 4070 BoxF
2162 4113 BoxF
2167 4093 BoxF
2331 4079 BoxF
2336 4105 BoxF
2342 4081 BoxF
2506 4094 BoxF
2511 4134 BoxF
2517 4112 BoxF
2681 4093 BoxF
2686 4131 BoxF
2692 4114 BoxF
2855 4104 BoxF
2861 4135 BoxF
2866 4115 BoxF
3030 4105 BoxF
3036 4134 BoxF
3041 4100 BoxF
3205 4095 BoxF
3210 4127 BoxF
3216 4108 BoxF
3380 4102 BoxF
3385 4125 BoxF
3391 4108 BoxF
3555 4098 BoxF
3560 4123 BoxF
3566 4109 BoxF
3729 4071 BoxF
3735 4114 BoxF
3740 4083 BoxF
3904 4105 BoxF
3910 4127 BoxF
3915 4112 BoxF
4079 4107 BoxF
4085 4132 BoxF
4090 4099 BoxF
4254 4099 BoxF
4259 4120 BoxF
4265 4107 BoxF
4429 4106 BoxF
4434 4121 BoxF
4440 4108 BoxF
4603 4108 BoxF
4609 4129 BoxF
4614 4114 BoxF
4778 4109 BoxF
4784 4133 BoxF
4789 4118 BoxF
4953 4115 BoxF
4959 4134 BoxF
4964 4119 BoxF
5128 4110 BoxF
5133 4132 BoxF
5139 4096 BoxF
5303 4106 BoxF
5308 4125 BoxF
5314 4112 BoxF
5478 4114 BoxF
5483 4131 BoxF
5488 4117 BoxF
5652 4111 BoxF
5658 4132 BoxF
5663 4119 BoxF
5827 4115 BoxF
5833 4133 BoxF
5838 4120 BoxF
6002 4117 BoxF
6007 4134 BoxF
6013 4123 BoxF
6177 4121 BoxF
6182 4141 BoxF
6188 4107 BoxF
6352 4109 BoxF
6357 4127 BoxF
6362 4077 BoxF
6526 4056 BoxF
6532 4087 BoxF
6537 4061 BoxF
6579 581 BoxF
% End plot #5
2.000 UL
LTb
LCb setrgbcolor
1.000 UL
LTB
LCb setrgbcolor
938 4619 N
938 448 L
6009 0 V
0 4171 V
-6009 0 V
Z stroke
1.000 UP
1.000 UL
LTb
LCb setrgbcolor
stroke
grestore
end
showpage
%%Trailer
%%DocumentFonts: Helvetica
%%Pages: 1
